\relax 
\citation{gillooly2001effects}
\citation{gillooly2001effects}
\citation{brown2004toward}
\citation{savage2004effects}
\citation{thomas2012global}
\citation{walther2002ecological}
\citation{thomas2012global}
\citation{walther2002ecological}
\citation{pawar2015metabolic}
\citation{savage2004effects}
\citation{otto2007biologist}
\citation{laidler1984development}
\citation{dell2011systematic}
\citation{schoolfield1981non}
\citation{posada2004model}
\citation{pawar2016real}
\citation{R}
\providecommand*\caption@xref[2]{\@setref\relax\@undefined{#1}}
\newlabel{fig:timing1}{{1a}{7}}
\newlabel{sub@fig:timing1}{{a}{7}}
\newlabel{fig:timing2}{{1b}{7}}
\newlabel{sub@fig:timing2}{{b}{7}}
\newlabel{fig:timing1}{{2a}{8}}
\newlabel{sub@fig:timing1}{{a}{8}}
\newlabel{fig:timing2}{{2b}{8}}
\newlabel{sub@fig:timing2}{{b}{8}}
\citation{otto2007biologist}
\citation{forster2012warming}
\citation{yvon2012reconciling}
\citation{yvon2012reconciling}
\citation{yvon2012reconciling}
\@writefile{lof}{\contentsline {figure}{\numberline {3}{\ignorespaces Pie chart showing the percentage AIC values that were highest between the two models for growth rate\relax }}{9}}
\newlabel{fig:timing1}{{4a}{9}}
\newlabel{sub@fig:timing1}{{a}{9}}
\newlabel{fig:timing2}{{4b}{9}}
\newlabel{sub@fig:timing2}{{b}{9}}
\bibdata{mybib}
\bibcite{brown2004toward}{1}
\bibcite{dell2011systematic}{2}
\bibcite{forster2012warming}{3}
\bibcite{gillooly2001effects}{4}
\bibcite{laidler1984development}{5}
\bibcite{otto2007biologist}{6}
\bibcite{pawar2015metabolic}{7}
\bibcite{pawar2016real}{8}
\bibcite{posada2004model}{9}
\bibcite{R}{10}
\bibcite{savage2004effects}{11}
\bibcite{schoolfield1981non}{12}
\bibcite{thomas2012global}{13}
\bibcite{walther2002ecological}{14}
\bibcite{yvon2012reconciling}{15}
\bibstyle{plain}
