\relax 
\@writefile{toc}{\contentsline {section}{\numberline {1}Functions Worksheet}{1}}
\@writefile{toc}{\contentsline {subsection}{\numberline {1.1}Radioactive decay}{1}}
\@writefile{toc}{\contentsline {subsection}{\numberline {1.2}Hyperbolic functions}{1}}
\@writefile{lof}{\contentsline {figure}{\numberline {1}{\ignorespaces for \emph  {f(x) = y1} and\emph  { g(x) = y5} when \emph  {n}= [0,10] approximation seems reasonable up to where x is 6}}{2}}
\@writefile{lof}{\contentsline {figure}{\numberline {2}{\ignorespaces for \emph  {f(x) = y2} and\emph  { g(x) = y6} when \emph  {n}= [0,10] approximation seems reasonable up to where x is 6}}{2}}
\@writefile{lof}{\contentsline {figure}{\numberline {3}{\ignorespaces for \emph  {f(x) = y1} and\emph  { g(x) = y7} when \emph  {n}= [0,10] Approximation seems reasonable for x values greater than 4 }}{3}}
\@writefile{lof}{\contentsline {figure}{\numberline {4}{\ignorespaces for \emph  {f(x) = y2} and\emph  { g(x) = y7} when \emph  {n}= [0,10] Approximation seems reasonable for x values greater than 4 }}{3}}
\@writefile{lof}{\contentsline {figure}{\numberline {5}{\ignorespaces for \emph  {f(x) = y1} and\emph  { g(x) = y8} when \emph  {n}= [-10,0] approximation seems reasonable up to where x is 6}}{4}}
\@writefile{lof}{\contentsline {figure}{\numberline {6}{\ignorespaces for \emph  {f(x) = y2} and\emph  { g(x) = y9} when \emph  {n}= [-10,0] approximation seems reasonable up to where x is 6}}{4}}
\@writefile{toc}{\contentsline {subsection}{\numberline {1.3}The True Diversity}{5}}
\@writefile{toc}{\contentsline {section}{\numberline {2}Limits}{6}}
\@writefile{toc}{\contentsline {subsection}{\numberline {2.1}Indeterminate limits of type 0/0}{6}}
\@writefile{toc}{\contentsline {subsection}{\numberline {2.2}Central Limit Theorem}{7}}
\@writefile{toc}{\contentsline {subsection}{\numberline {2.3}Logistic or Verhulst curve}{7}}
\@writefile{toc}{\contentsline {subsection}{\numberline {2.4}River Management}{7}}
\@writefile{toc}{\contentsline {section}{\numberline {3}Integrals}{8}}
\@writefile{toc}{\contentsline {subsection}{\numberline {3.1}Functions with no antiderivative}{8}}
\@writefile{toc}{\contentsline {subsection}{\numberline {3.2}Applications, Hysteresis}{9}}
\@writefile{toc}{\contentsline {subsection}{\numberline {3.3}Applications, The power of termites}{9}}
\@writefile{toc}{\contentsline {section}{\numberline {4}Odinary Differential Equations}{9}}
\@writefile{toc}{\contentsline {subsection}{\numberline {4.1}Newton's Law of Cooling}{9}}
\@writefile{toc}{\contentsline {subsection}{\numberline {4.2}Logistic or Verhulst equation}{10}}
\@writefile{toc}{\contentsline {section}{\numberline {5}Linear Algebra}{10}}
\@writefile{toc}{\contentsline {subsection}{\numberline {5.1}The contact overlap and the designability}{10}}
\@writefile{toc}{\contentsline {subsection}{\numberline {5.2}The nestedness}{10}}
\@writefile{toc}{\contentsline {subsection}{\numberline {5.3}Determinants}{10}}
\@writefile{toc}{\contentsline {subsection}{\numberline {5.4}Rotations}{10}}
