\relax 
\@writefile{toc}{\contentsline {section}{\numberline {1}Neutral Theory Simulations}{1}}
\@writefile{toc}{\contentsline {subsection}{\numberline {1.1}Question 7}{1}}
\@writefile{lof}{\contentsline {figure}{\numberline {1}{\ignorespaces Time graph of species richness\relax }}{1}}
\@writefile{toc}{\contentsline {subsection}{\numberline {1.2}Question 10}{2}}
\@writefile{lof}{\contentsline {figure}{\numberline {2}{\ignorespaces Time graph of species richness from an initial population with maximum diversity (green) and the minimum number of diversity (red)\relax }}{2}}
\@writefile{toc}{\contentsline {subsection}{\numberline {1.3}Question 14}{3}}
\@writefile{lof}{\contentsline {figure}{\numberline {3}{\ignorespaces Time graph of species richness as a function of species abundance in octaves\relax }}{3}}
\@writefile{toc}{\contentsline {subsection}{\numberline {1.4}Question 17}{4}}
\@writefile{lof}{\contentsline {figure}{\numberline {4}{\ignorespaces Time graph of species richness as a function of species abundance in octaves\relax }}{4}}
\@writefile{toc}{\contentsline {subsection}{\numberline {1.5}Challenge C}{5}}
\@writefile{lof}{\contentsline {figure}{\numberline {5}{\ignorespaces Species richness as a function of generation time for different population sizes\relax }}{5}}
\@writefile{toc}{\contentsline {section}{\numberline {2}Fractals}{6}}
\@writefile{toc}{\contentsline {subsection}{\numberline {2.1}Question 18}{6}}
\@writefile{toc}{\contentsline {subsection}{\numberline {2.2}Question 19}{7}}
\@writefile{lof}{\contentsline {figure}{\numberline {6}{\ignorespaces Chaos game\relax }}{7}}
\@writefile{toc}{\contentsline {subsection}{\numberline {2.3}Challenge E}{8}}
\@writefile{lof}{\contentsline {figure}{\numberline {7}{\ignorespaces Chaos game with startpoint at (5,3) and instead of the new point being alfway between the new and old point, it’s a third of the way.\relax }}{8}}
\@writefile{lof}{\contentsline {figure}{\numberline {8}{\ignorespaces Chaos game with startpoint at (5,3) and instead of the new point being alfway between the new and old point, it’s a third of the way.\relax }}{9}}
\@writefile{toc}{\contentsline {subsection}{\numberline {2.4}Question 22}{10}}
\@writefile{lof}{\contentsline {figure}{\numberline {9}{\ignorespaces Spiral\relax }}{10}}
\@writefile{toc}{\contentsline {subsection}{\numberline {2.5}Question 23}{11}}
\@writefile{lof}{\contentsline {figure}{\numberline {10}{\ignorespaces Spiral 2\relax }}{11}}
\@writefile{toc}{\contentsline {subsection}{\numberline {2.6}Question 24}{12}}
\@writefile{lof}{\contentsline {figure}{\numberline {11}{\ignorespaces Tree\relax }}{12}}
\@writefile{toc}{\contentsline {subsection}{\numberline {2.7}Question 26}{13}}
\@writefile{lof}{\contentsline {figure}{\numberline {12}{\ignorespaces Fern 2\relax }}{13}}
\@writefile{toc}{\contentsline {subsection}{\numberline {2.8}Challenge F}{14}}
\@writefile{lof}{\contentsline {figure}{\numberline {13}{\ignorespaces Fern 2\relax }}{14}}
\@writefile{lof}{\contentsline {figure}{\numberline {14}{\ignorespaces tree\relax }}{15}}
\@writefile{lof}{\contentsline {figure}{\numberline {15}{\ignorespaces tree\relax }}{16}}
\@writefile{lof}{\contentsline {figure}{\numberline {16}{\ignorespaces moving fern!\relax }}{17}}
