<?xml version="1.0" encoding="UTF-8"?>
<svg xmlns="http://www.w3.org/2000/svg" xmlns:xlink="http://www.w3.org/1999/xlink" width="504pt" height="504pt" viewBox="0 0 504 504" version="1.1">
<defs>
<g>
<symbol overflow="visible" id="glyph0-0">
<path style="stroke:none;" d=""/>
</symbol>
<symbol overflow="visible" id="glyph0-1">
<path style="stroke:none;" d="M 3.90625 -0.140625 L 3.90625 -0.515625 C 2.796875 -0.5625 2.734375 -0.578125 2.734375 -1.453125 L 2.734375 -6.78125 C 2.734375 -7.65625 2.765625 -7.671875 3.90625 -7.71875 L 3.90625 -8.25 L 0.078125 -8.25 L 0.078125 -7.71875 C 1.234375 -7.65625 1.234375 -7.671875 1.234375 -6.78125 L 1.234375 -1.453125 C 1.234375 -0.546875 1.21875 -0.5625 0.078125 -0.515625 L 0.078125 0 L 3.90625 0 Z M 3.90625 -0.140625 "/>
</symbol>
<symbol overflow="visible" id="glyph0-2">
<path style="stroke:none;" d="M 7.6875 -1.609375 L 7.375 -1.921875 C 6.390625 -0.96875 5.703125 -0.65625 4.703125 -0.65625 C 3.984375 -0.65625 3.4375 -0.828125 2.921875 -1.25 C 2.21875 -1.84375 1.859375 -2.8125 1.859375 -4.203125 C 1.859375 -6.375 2.84375 -7.625 4.578125 -7.625 C 5.28125 -7.625 5.78125 -7.421875 6.265625 -6.9375 C 6.640625 -6.546875 6.796875 -6.328125 7.0625 -5.40625 L 7.578125 -5.40625 L 7.453125 -8.40625 L 6.984375 -8.40625 C 6.859375 -8 6.8125 -8.015625 6.59375 -8.015625 C 6.46875 -8.015625 6.296875 -8.046875 6.109375 -8.125 C 5.515625 -8.3125 4.9375 -8.40625 4.34375 -8.40625 C 3.421875 -8.40625 2.359375 -8.015625 1.625 -7.421875 C 0.71875 -6.65625 0.1875 -5.40625 0.1875 -4.046875 C 0.1875 -1.609375 1.9375 0.171875 4.3125 0.171875 C 5.671875 0.171875 6.953125 -0.421875 7.78125 -1.515625 Z M 7.6875 -1.609375 "/>
</symbol>
<symbol overflow="visible" id="glyph0-3">
<path style="stroke:none;" d="M 7.171875 -2.390625 L 6.796875 -2.390625 C 6.546875 -1.8125 6.421875 -1.640625 6.25 -1.453125 C 5.828125 -0.953125 5.28125 -0.765625 4.25 -0.765625 L 3.4375 -0.765625 C 2.5625 -0.765625 2.546875 -0.6875 2.546875 -1.109375 L 2.546875 -6.78125 C 2.546875 -7.625 2.578125 -7.65625 3.65625 -7.71875 L 3.65625 -8.25 L 0 -8.25 L 0 -7.71875 C 1.03125 -7.640625 1.046875 -7.625 1.046875 -6.78125 L 1.046875 -1.453125 C 1.046875 -0.59375 1.015625 -0.59375 0 -0.515625 L 0 0 L 6.703125 0 L 7.34375 -2.390625 Z M 7.171875 -2.390625 "/>
</symbol>
<symbol overflow="visible" id="glyph0-4">
<path style="stroke:none;" d="M 8.59375 -7.859375 L 8.59375 -8.25 L 5.53125 -8.25 L 5.53125 -7.71875 C 6.609375 -7.640625 6.65625 -7.53125 6.65625 -6.328125 L 6.65625 -3.078125 C 6.65625 -2.265625 6.609375 -1.921875 6.421875 -1.5625 C 6.09375 -0.984375 5.4375 -0.65625 4.53125 -0.65625 C 3.6875 -0.65625 3.1875 -0.90625 2.875 -1.46875 C 2.65625 -1.84375 2.609375 -2.1875 2.609375 -2.9375 L 2.609375 -6.78125 C 2.609375 -7.640625 2.609375 -7.625 3.703125 -7.734375 L 3.703125 -8.25 L 0.03125 -8.25 L 0.03125 -7.71875 C 1.109375 -7.640625 1.109375 -7.65625 1.109375 -6.78125 L 1.109375 -3.03125 C 1.109375 -0.953125 2.21875 0.171875 4.265625 0.171875 C 5.5625 0.171875 6.5625 -0.28125 7.03125 -1.109375 C 7.3125 -1.609375 7.46875 -2.265625 7.46875 -3.1875 L 7.46875 -6.328125 C 7.46875 -7.546875 7.46875 -7.59375 8.59375 -7.734375 Z M 8.59375 -7.859375 "/>
</symbol>
<symbol overflow="visible" id="glyph0-5">
<path style="stroke:none;" d="M 5.765625 -2.953125 C 5.765625 -4.53125 4.53125 -5.8125 3 -5.8125 C 1.4375 -5.8125 0.203125 -4.515625 0.203125 -2.859375 C 0.203125 -1.234375 1.46875 0.125 2.96875 0.125 C 4.484375 0.125 5.765625 -1.296875 5.765625 -2.953125 Z M 4.421875 -2.53125 C 4.421875 -1.171875 4.015625 -0.515625 3.125 -0.515625 C 2.65625 -0.515625 2.296875 -0.75 2.046875 -1.234375 C 1.71875 -1.859375 1.5625 -2.59375 1.5625 -3.4375 C 1.5625 -4.578125 1.984375 -5.1875 2.84375 -5.1875 C 3.859375 -5.1875 4.421875 -4.171875 4.421875 -2.53125 Z M 4.421875 -2.53125 "/>
</symbol>
<symbol overflow="visible" id="glyph0-6">
<path style="stroke:none;" d="M 8.046875 -0.140625 L 8.046875 -0.515625 C 7.453125 -0.5625 7.3125 -0.640625 6.953125 -1.046875 L 4.640625 -3.875 C 5.203125 -3.984375 5.65625 -4.15625 6.046875 -4.484375 C 6.4375 -4.796875 6.703125 -5.40625 6.703125 -5.96875 C 6.703125 -6.484375 6.5 -7.046875 6.1875 -7.390625 C 5.734375 -7.890625 4.640625 -8.25 3.515625 -8.25 L 0.0625 -8.25 L 0.0625 -7.734375 C 1.109375 -7.625 1.078125 -7.625 1.078125 -6.78125 L 1.078125 -1.578125 C 1.078125 -0.59375 1.109375 -0.59375 0.0625 -0.515625 L 0.0625 0 L 3.65625 0 L 3.65625 -0.515625 C 2.609375 -0.59375 2.578125 -0.59375 2.578125 -1.453125 L 2.578125 -3.671875 L 3.0625 -3.6875 L 5.90625 0 L 8.046875 0 Z M 5.109375 -6 C 5.109375 -5.40625 4.890625 -5 4.46875 -4.78125 C 3.90625 -4.46875 3.59375 -4.4375 2.578125 -4.421875 L 2.578125 -7.21875 C 2.578125 -7.546875 2.578125 -7.5 3.0625 -7.5 C 4.5625 -7.5 5.109375 -7.125 5.109375 -6 Z M 5.109375 -6 "/>
</symbol>
<symbol overflow="visible" id="glyph0-7">
<path style="stroke:none;" d="M 7.15625 -2.328125 L 6.75 -2.328125 C 6.078125 -0.875 5.71875 -0.75 4 -0.75 L 3.671875 -0.75 C 3.09375 -0.75 2.71875 -0.75 2.609375 -0.828125 C 2.53125 -0.875 2.546875 -0.875 2.546875 -1.109375 L 2.546875 -3.921875 L 4.265625 -3.921875 C 5.25 -3.921875 5.28125 -3.90625 5.453125 -2.765625 L 5.984375 -2.765625 L 5.984375 -5.859375 L 5.453125 -5.859375 C 5.28125 -4.71875 5.234375 -4.71875 4.265625 -4.71875 L 2.546875 -4.71875 L 2.546875 -7.21875 C 2.546875 -7.5625 2.484375 -7.484375 2.8125 -7.484375 L 4.421875 -7.484375 C 5.78125 -7.484375 5.90625 -7.453125 6.125 -6.234375 L 6.6875 -6.234375 L 6.640625 -8.25 L 0 -8.25 L 0 -7.71875 C 1.03125 -7.640625 1.046875 -7.625 1.046875 -6.78125 L 1.046875 -1.453125 C 1.046875 -0.59375 1.015625 -0.59375 0 -0.515625 L 0 0 L 6.71875 0 L 7.328125 -2.328125 Z M 7.15625 -2.328125 "/>
</symbol>
<symbol overflow="visible" id="glyph0-8">
<path style="stroke:none;" d="M 8.5625 -0.140625 L 8.5625 -0.515625 C 7.53125 -0.59375 7.5 -0.59375 7.5 -1.453125 L 7.5 -6.78125 C 7.5 -7.640625 7.5 -7.625 8.5625 -7.734375 L 8.5625 -8.25 L 4.9375 -8.25 L 4.9375 -7.734375 C 6.015625 -7.625 6 -7.640625 6 -6.78125 L 6 -4.609375 L 2.640625 -4.609375 L 2.640625 -6.78125 C 2.640625 -7.640625 2.640625 -7.625 3.703125 -7.734375 L 3.703125 -8.25 L 0.078125 -8.25 L 0.078125 -7.734375 C 1.15625 -7.625 1.140625 -7.640625 1.140625 -6.78125 L 1.140625 -1.578125 C 1.140625 -0.578125 1.15625 -0.59375 0.078125 -0.515625 L 0.078125 0 L 3.703125 0 L 3.703125 -0.515625 C 2.65625 -0.59375 2.640625 -0.59375 2.640625 -1.453125 L 2.640625 -3.78125 L 6 -3.78125 L 6 -1.578125 C 6 -0.578125 6.03125 -0.59375 4.9375 -0.515625 L 4.9375 0 L 8.5625 0 Z M 8.5625 -0.140625 "/>
</symbol>
<symbol overflow="visible" id="glyph0-9">
<path style="stroke:none;" d="M 7.15625 -2.40625 L 6.796875 -2.40625 C 6.546875 -1.578125 6.453125 -1.4375 6.21875 -1.171875 C 5.921875 -0.875 5.515625 -0.75 4.828125 -0.75 L 2.015625 -0.75 L 7.0625 -7.859375 L 7.0625 -8.25 L 0.484375 -8.25 L 0.21875 -5.890625 L 0.796875 -5.890625 C 0.921875 -6.625 0.984375 -6.75 1.1875 -7.015625 C 1.46875 -7.359375 1.90625 -7.484375 2.703125 -7.484375 L 5.0625 -7.484375 L -0.03125 -0.375 L -0.03125 0 L 6.984375 0 L 7.3125 -2.40625 Z M 7.15625 -2.40625 "/>
</symbol>
<symbol overflow="visible" id="glyph0-10">
<path style="stroke:none;" d="M 6.03125 -2.15625 C 6.03125 -3.15625 5.328125 -4.03125 3.75 -4.890625 C 2.484375 -5.578125 2.015625 -6 2.015625 -6.65625 C 2.015625 -7.3125 2.390625 -7.625 3.125 -7.625 C 3.671875 -7.625 4.0625 -7.421875 4.484375 -7 C 4.859375 -6.609375 4.984375 -6.40625 5.21875 -5.5625 L 5.765625 -5.5625 L 5.484375 -8.40625 L 4.984375 -8.40625 C 4.921875 -7.984375 4.9375 -8 4.734375 -8 C 4.609375 -8 4.421875 -8.046875 4.203125 -8.140625 C 3.75 -8.3125 3.328125 -8.40625 2.90625 -8.40625 C 2.4375 -8.40625 1.828125 -8.171875 1.4375 -7.859375 C 0.96875 -7.46875 0.703125 -6.859375 0.703125 -6.1875 C 0.703125 -5.25 1.265625 -4.46875 2.609375 -3.75 C 3.484375 -3.28125 4.109375 -2.8125 4.40625 -2.359375 C 4.515625 -2.1875 4.53125 -2.046875 4.53125 -1.75 C 4.53125 -0.953125 4.078125 -0.5625 3.203125 -0.5625 C 2.125 -0.5625 1.515625 -1.0625 0.859375 -2.6875 L 0.34375 -2.6875 L 0.75 0.15625 L 1.25 0.15625 C 1.265625 -0.21875 1.28125 -0.234375 1.46875 -0.234375 C 1.59375 -0.234375 1.796875 -0.1875 2.03125 -0.109375 C 2.484375 0.078125 2.96875 0.171875 3.4375 0.171875 C 4.84375 0.171875 6.03125 -0.921875 6.03125 -2.15625 Z M 6.03125 -2.15625 "/>
</symbol>
<symbol overflow="visible" id="glyph0-11">
<path style="stroke:none;" d="M 6.6875 -6.375 L 6.640625 -8.25 L 0 -8.25 L 0 -7.71875 C 1.03125 -7.640625 1.046875 -7.625 1.046875 -6.78125 L 1.046875 -1.578125 C 1.046875 -0.59375 1.0625 -0.59375 0 -0.515625 L 0 0 L 3.640625 0 L 3.640625 -0.515625 C 2.578125 -0.578125 2.546875 -0.59375 2.546875 -1.453125 L 2.546875 -3.921875 L 4.15625 -3.921875 C 5.125 -3.921875 5.1875 -3.890625 5.359375 -2.765625 L 5.875 -2.765625 L 5.875 -5.859375 L 5.359375 -5.859375 C 5.1875 -4.734375 5.109375 -4.71875 4.15625 -4.71875 L 2.546875 -4.71875 L 2.546875 -7.21875 C 2.546875 -7.5625 2.46875 -7.484375 2.796875 -7.484375 L 4.421875 -7.484375 C 5.78125 -7.484375 5.90625 -7.453125 6.125 -6.234375 L 6.6875 -6.234375 Z M 6.6875 -6.375 "/>
</symbol>
<symbol overflow="visible" id="glyph0-12">
<path style="stroke:none;" d="M 8.609375 -0.140625 L 8.609375 -0.515625 C 7.9375 -0.5625 7.9375 -0.53125 7.53125 -1.421875 L 4.46875 -8.390625 L 4.078125 -8.390625 L 1.53125 -2.34375 C 0.75 -0.59375 0.75 -0.5625 0.03125 -0.515625 L 0.03125 0 L 2.6875 0 L 2.6875 -0.53125 C 1.984375 -0.53125 1.875 -0.53125 1.875 -0.859375 C 1.875 -1.015625 1.90625 -1.171875 1.96875 -1.328125 L 2.453125 -2.59375 L 5.453125 -2.59375 L 5.875 -1.578125 C 6.03125 -1.25 6.109375 -0.953125 6.109375 -0.765625 C 6.109375 -0.65625 6.078125 -0.640625 5.96875 -0.59375 C 5.828125 -0.5 5.84375 -0.53125 5.265625 -0.53125 L 5.265625 0 L 8.609375 0 Z M 5.359375 -3.390625 L 2.78125 -3.390625 L 4.109375 -6.53125 L 3.828125 -6.53125 L 5.15625 -3.390625 Z M 5.359375 -3.390625 "/>
</symbol>
<symbol overflow="visible" id="glyph0-13">
<path style="stroke:none;" d="M 8.609375 -7.859375 L 8.609375 -8.25 L 5.515625 -8.25 L 5.515625 -7.71875 C 6.125 -7.6875 6.1875 -7.671875 6.359375 -7.5625 C 6.59375 -7.390625 6.671875 -7.0625 6.671875 -6.328125 L 6.671875 -2.28125 L 6.90625 -2.390625 L 2.25 -8.25 L 0 -8.25 L 0 -7.71875 C 0.65625 -7.71875 0.71875 -7.65625 1.15625 -7.140625 L 1.15625 -1.90625 C 1.15625 -0.671875 1.140625 -0.59375 0 -0.515625 L 0 0 L 3.09375 0 L 3.09375 -0.515625 C 2.046875 -0.578125 1.96875 -0.703125 1.96875 -1.90625 L 1.96875 -6.609375 L 1.734375 -6.5 L 7.0625 0.125 L 7.46875 0.125 L 7.46875 -6.328125 C 7.46875 -7.046875 7.5625 -7.375 7.78125 -7.53125 C 7.953125 -7.65625 8.03125 -7.671875 8.609375 -7.734375 Z M 8.609375 -7.859375 "/>
</symbol>
<symbol overflow="visible" id="glyph0-14">
<path style="stroke:none;" d="M 5.953125 -0.140625 L 5.953125 -0.453125 C 5.234375 -0.546875 5.21875 -0.53125 5.21875 -1.109375 L 5.21875 -3.859375 C 5.21875 -4.984375 4.5625 -5.8125 3.671875 -5.8125 C 3.125 -5.8125 2.640625 -5.5625 2.0625 -5.015625 L 2.0625 -5.75 L 1.84375 -5.8125 C 1.265625 -5.609375 0.859375 -5.46875 0.046875 -5.234375 L 0.046875 -4.703125 C 0.359375 -4.84375 0.390625 -4.828125 0.515625 -4.828125 C 0.859375 -4.828125 0.8125 -4.78125 0.8125 -4.203125 L 0.8125 -1.21875 C 0.8125 -0.546875 0.828125 -0.53125 0.078125 -0.46875 L 0.078125 0 L 2.890625 0 L 2.890625 -0.46875 C 2.140625 -0.53125 2.09375 -0.515625 2.09375 -0.953125 L 2.09375 -4.25 C 2.640625 -4.75 2.8125 -4.859375 3.203125 -4.859375 C 3.796875 -4.859375 3.9375 -4.625 3.9375 -3.84375 L 3.9375 -1.328125 C 3.9375 -0.578125 3.921875 -0.53125 3.1875 -0.46875 L 3.1875 0 L 5.953125 0 Z M 5.953125 -0.140625 "/>
</symbol>
<symbol overflow="visible" id="glyph0-15">
<path style="stroke:none;" d="M 5.046875 -2.015625 L 4.734375 -2.203125 C 4.09375 -1.28125 3.765625 -1.046875 3.078125 -1.046875 C 1.984375 -1.046875 1.359375 -1.84375 1.359375 -3.234375 C 1.359375 -4.46875 1.890625 -5.171875 2.859375 -5.171875 C 3.28125 -5.171875 3.296875 -5.1875 3.421875 -4.734375 L 3.484375 -4.46875 C 3.59375 -4.125 3.953125 -3.78125 4.21875 -3.78125 C 4.53125 -3.78125 4.90625 -4.15625 4.90625 -4.421875 C 4.90625 -5.09375 3.9375 -5.8125 2.921875 -5.8125 C 2.359375 -5.8125 1.6875 -5.5625 1.203125 -5.15625 C 0.546875 -4.625 0.15625 -3.6875 0.15625 -2.6875 C 0.15625 -1.140625 1.25 0.125 2.578125 0.125 C 3.09375 0.125 3.640625 -0.078125 4.0625 -0.421875 C 4.421875 -0.703125 4.65625 -1.0625 5.109375 -1.953125 Z M 5.046875 -2.015625 "/>
</symbol>
<symbol overflow="visible" id="glyph1-0">
<path style="stroke:none;" d=""/>
</symbol>
<symbol overflow="visible" id="glyph1-1">
<path style="stroke:none;" d="M 6.328125 -2.25 L 6.328125 -7.25 L 5.15625 -7.25 L 5.15625 -2.25 C 5.15625 -1.3125 4.609375 -0.875 3.484375 -0.875 C 2.453125 -0.875 1.84375 -1.234375 1.84375 -2.25 L 1.84375 -7.25 L 0.671875 -7.25 L 0.671875 -2.25 C 0.671875 -0.828125 1.828125 0.171875 3.484375 0.171875 C 5.125 0.171875 6.328125 -0.859375 6.328125 -2.25 Z M 6.328125 -2.25 "/>
</symbol>
<symbol overflow="visible" id="glyph1-2">
<path style="stroke:none;" d="M 4.8125 -0.125 L 4.8125 -3.921875 C 4.8125 -4.765625 4.046875 -5.4375 3.078125 -5.4375 C 2.328125 -5.4375 1.75 -5.109375 1.3125 -4.40625 L 1.546875 -4.3125 L 1.546875 -5.28125 L 0.53125 -5.28125 L 0.53125 0 L 1.609375 0 L 1.609375 -2.890625 C 1.609375 -3.921875 2.03125 -4.46875 2.84375 -4.46875 C 3.46875 -4.46875 3.734375 -4.21875 3.734375 -3.609375 L 3.734375 0 L 4.8125 0 Z M 4.8125 -0.125 "/>
</symbol>
<symbol overflow="visible" id="glyph1-3">
<path style="stroke:none;" d="M 1.609375 -0.125 L 1.609375 -5.28125 L 0.53125 -5.28125 L 0.53125 0 L 1.609375 0 Z M 1.703125 -5.90625 L 1.703125 -7.046875 L 0.4375 -7.046875 L 0.4375 -5.78125 L 1.703125 -5.78125 Z M 1.703125 -5.90625 "/>
</symbol>
<symbol overflow="visible" id="glyph1-4">
<path style="stroke:none;" d="M 4.65625 -5.28125 L 3.671875 -5.28125 L 2.203125 -1.078125 L 2.46875 -1.078125 L 1.09375 -5.28125 L -0.09375 -5.28125 L 1.765625 0 L 2.828125 0 L 4.84375 -5.28125 Z M 4.65625 -5.28125 "/>
</symbol>
<symbol overflow="visible" id="glyph1-5">
<path style="stroke:none;" d="M 5.0625 -2.40625 C 5.0625 -3.140625 5 -3.59375 4.859375 -3.96875 C 4.53125 -4.796875 3.625 -5.4375 2.6875 -5.4375 C 1.28125 -5.4375 0.234375 -4.265625 0.234375 -2.609375 C 0.234375 -0.953125 1.25 0.140625 2.671875 0.140625 C 3.8125 0.140625 4.75 -0.640625 4.984375 -1.78125 L 3.90625 -1.78125 C 3.640625 -0.984375 3.34375 -0.859375 2.703125 -0.859375 C 1.859375 -0.859375 1.375 -1.25 1.359375 -2.28125 L 5.0625 -2.28125 Z M 4.15625 -3.03125 C 4.15625 -3.03125 3.96875 -3.171875 3.96875 -3.1875 L 1.375 -3.1875 C 1.4375 -3.953125 1.875 -4.4375 2.671875 -4.4375 C 3.46875 -4.4375 3.921875 -3.90625 3.921875 -3.125 Z M 4.15625 -3.03125 "/>
</symbol>
<symbol overflow="visible" id="glyph1-6">
<path style="stroke:none;" d="M 3.21875 -4.453125 L 3.21875 -5.375 C 2.9375 -5.421875 2.875 -5.4375 2.765625 -5.4375 C 2.25 -5.4375 1.75 -5.078125 1.296875 -4.34375 L 1.53125 -4.234375 L 1.53125 -5.28125 L 0.53125 -5.28125 L 0.53125 0 L 1.609375 0 L 1.609375 -2.734375 C 1.609375 -3.859375 1.84375 -4.3125 3.21875 -4.328125 Z M 3.21875 -4.453125 "/>
</symbol>
<symbol overflow="visible" id="glyph1-7">
<path style="stroke:none;" d="M 4.53125 -1.53125 C 4.53125 -2.28125 3.984375 -2.796875 2.984375 -3.03125 L 2.21875 -3.21875 C 1.5625 -3.375 1.421875 -3.4375 1.421875 -3.796875 C 1.421875 -4.265625 1.703125 -4.4375 2.34375 -4.4375 C 3 -4.4375 3.1875 -4.28125 3.21875 -3.625 L 4.34375 -3.625 C 4.328125 -4.734375 3.546875 -5.4375 2.375 -5.4375 C 1.203125 -5.4375 0.3125 -4.6875 0.3125 -3.765625 C 0.3125 -2.96875 0.859375 -2.46875 2.046875 -2.1875 L 2.796875 -2 C 3.34375 -1.875 3.421875 -1.828125 3.421875 -1.46875 C 3.421875 -1 3.09375 -0.859375 2.390625 -0.859375 C 1.671875 -0.859375 1.40625 -0.890625 1.28125 -1.796875 L 0.171875 -1.796875 C 0.21875 -0.5 1.015625 0.140625 2.328125 0.140625 C 3.59375 0.140625 4.53125 -0.5625 4.53125 -1.53125 Z M 4.53125 -1.53125 "/>
</symbol>
<symbol overflow="visible" id="glyph1-8">
<path style="stroke:none;" d="M 2.578125 -0.125 L 2.578125 -0.96875 C 2.328125 -0.90625 2.203125 -0.890625 2.046875 -0.890625 C 1.703125 -0.890625 1.75 -0.859375 1.75 -1.203125 L 1.75 -4.375 L 2.578125 -4.375 L 2.578125 -5.28125 L 1.75 -5.28125 L 1.75 -6.671875 L 0.671875 -6.671875 L 0.671875 -5.28125 L -0.015625 -5.28125 L -0.015625 -4.375 L 0.671875 -4.375 L 0.671875 -0.859375 C 0.671875 -0.34375 1.15625 0.0625 1.78125 0.0625 C 1.96875 0.0625 2.171875 0.046875 2.578125 -0.015625 Z M 2.578125 -0.125 "/>
</symbol>
<symbol overflow="visible" id="glyph1-9">
<path style="stroke:none;" d="M 4.578125 -5.28125 L 3.625 -5.28125 L 2.1875 -1.234375 L 2.46875 -1.234375 L 1.140625 -5.28125 L 0 -5.28125 L 1.75 -0.109375 L 1.4375 0.6875 C 1.3125 1.046875 1.28125 1.046875 0.9375 1.046875 C 0.828125 1.046875 0.6875 1.03125 0.375 0.953125 L 0.375 1.90625 C 0.578125 2.015625 0.84375 2.09375 1.0625 2.09375 C 1.625 2.09375 2.21875 1.65625 2.484375 0.9375 L 4.765625 -5.28125 Z M 4.578125 -5.28125 "/>
</symbol>
<symbol overflow="visible" id="glyph1-10">
<path style="stroke:none;" d="M 6.3125 -0.125 L 6.3125 -7.25 L 5.140625 -7.25 L 5.140625 -4.234375 L 1.828125 -4.234375 L 1.828125 -7.25 L 0.65625 -7.25 L 0.65625 0 L 1.828125 0 L 1.828125 -3.1875 L 5.140625 -3.1875 L 5.140625 0 L 6.3125 0 Z M 6.3125 -0.125 "/>
</symbol>
<symbol overflow="visible" id="glyph1-11">
<path style="stroke:none;" d="M 5.03125 -2.59375 C 5.03125 -4.34375 4.0625 -5.4375 2.609375 -5.4375 C 1.203125 -5.4375 0.203125 -4.328125 0.203125 -2.640625 C 0.203125 -0.953125 1.1875 0.140625 2.625 0.140625 C 4.03125 0.140625 5.03125 -0.953125 5.03125 -2.59375 Z M 3.921875 -2.609375 C 3.921875 -1.421875 3.5 -0.859375 2.625 -0.859375 C 1.734375 -0.859375 1.3125 -1.421875 1.3125 -2.640625 C 1.3125 -3.84375 1.734375 -4.4375 2.625 -4.4375 C 3.515625 -4.4375 3.921875 -3.859375 3.921875 -2.609375 Z M 3.921875 -2.609375 "/>
</symbol>
<symbol overflow="visible" id="glyph1-12">
<path style="stroke:none;" d="M 4.828125 -0.953125 L 4.828125 -5.28125 L 3.8125 -5.28125 L 3.8125 -4.421875 L 4.046875 -4.515625 C 3.640625 -5.109375 3.0625 -5.4375 2.421875 -5.4375 C 1.140625 -5.4375 0.140625 -4.21875 0.140625 -2.59375 C 0.140625 -1 1.171875 0.140625 2.34375 0.140625 C 2.984375 0.140625 3.515625 -0.15625 4.046875 -0.796875 L 3.8125 -0.875 L 3.8125 -0.546875 C 3.8125 0.78125 3.40625 1.15625 2.46875 1.15625 C 1.84375 1.15625 1.484375 1.0625 1.375 0.3125 L 0.28125 0.3125 C 0.390625 1.40625 1.265625 2.09375 2.453125 2.09375 C 4.015625 2.09375 4.828125 1.265625 4.828125 -0.953125 Z M 3.734375 -2.609375 C 3.734375 -1.40625 3.359375 -0.859375 2.515625 -0.859375 C 1.640625 -0.859375 1.25 -1.421875 1.25 -2.640625 C 1.25 -3.84375 1.65625 -4.4375 2.5 -4.4375 C 3.375 -4.4375 3.734375 -3.828125 3.734375 -2.609375 Z M 3.734375 -2.609375 "/>
</symbol>
<symbol overflow="visible" id="glyph1-13">
<path style="stroke:none;" d=""/>
</symbol>
<symbol overflow="visible" id="glyph1-14">
<path style="stroke:none;" d="M 6.046875 -5.0625 C 6.046875 -6.375 5.140625 -7.25 3.765625 -7.25 L 0.734375 -7.25 L 0.734375 0 L 1.90625 0 L 1.90625 -2.96875 L 3.96875 -2.96875 C 5.109375 -2.96875 6.046875 -3.90625 6.046875 -5.0625 Z M 4.84375 -5.109375 C 4.84375 -4.34375 4.484375 -4.015625 3.625 -4.015625 L 1.90625 -4.015625 L 1.90625 -6.203125 L 3.625 -6.203125 C 4.484375 -6.203125 4.84375 -5.875 4.84375 -5.109375 Z M 4.84375 -5.109375 "/>
</symbol>
<symbol overflow="visible" id="glyph1-15">
<path style="stroke:none;" d="M 5.265625 -0.140625 L 5.265625 -0.90625 C 5.046875 -0.859375 5.015625 -0.859375 4.953125 -0.859375 C 4.6875 -0.859375 4.65625 -0.875 4.65625 -1.125 L 4.65625 -3.921875 C 4.65625 -4.8125 3.875 -5.4375 2.640625 -5.4375 C 1.421875 -5.4375 0.53125 -4.828125 0.46875 -3.546875 L 1.546875 -3.546875 C 1.625 -4.28125 1.859375 -4.4375 2.609375 -4.4375 C 3.328125 -4.4375 3.59375 -4.28125 3.59375 -3.8125 L 3.59375 -3.59375 C 3.59375 -3.265625 3.53125 -3.25 2.890625 -3.171875 C 1.765625 -3.03125 1.59375 -3 1.28125 -2.875 C 0.703125 -2.625 0.265625 -2.046875 0.265625 -1.421875 C 0.265625 -0.515625 1.03125 0.140625 2.046875 0.140625 C 2.703125 0.140625 3.421875 -0.15625 3.671875 -0.4375 C 3.703125 -0.328125 4.1875 0.0625 4.578125 0.0625 C 4.75 0.0625 4.875 0.046875 5.265625 -0.046875 Z M 3.59375 -1.859375 C 3.59375 -1.140625 3 -0.8125 2.21875 -0.8125 C 1.609375 -0.8125 1.375 -0.90625 1.375 -1.453125 C 1.375 -1.96875 1.59375 -2.078125 2.453125 -2.203125 C 3.296875 -2.328125 3.46875 -2.359375 3.59375 -2.421875 Z M 3.59375 -1.859375 "/>
</symbol>
<symbol overflow="visible" id="glyph1-16">
<path style="stroke:none;" d="M 6.328125 -0.125 L 6.328125 -7.25 L 5.203125 -7.25 L 5.203125 -1.40625 L 5.453125 -1.5 L 1.765625 -7.25 L 0.578125 -7.25 L 0.578125 0 L 1.703125 0 L 1.703125 -5.796875 L 1.46875 -5.703125 L 5.109375 0 L 6.328125 0 Z M 6.328125 -0.125 "/>
</symbol>
<symbol overflow="visible" id="glyph1-17">
<path style="stroke:none;" d="M 2.859375 -2.421875 L 2.859375 -3.25 L 0.296875 -3.25 L 0.296875 -2.296875 L 2.859375 -2.296875 Z M 2.859375 -2.421875 "/>
</symbol>
<symbol overflow="visible" id="glyph1-18">
<path style="stroke:none;" d="M 4.796875 -0.125 L 4.796875 -3.921875 C 4.796875 -4.765625 4.0625 -5.4375 3.078125 -5.4375 C 2.375 -5.4375 1.828125 -5.171875 1.359375 -4.5625 L 1.609375 -4.46875 L 1.609375 -7.25 L 0.53125 -7.25 L 0.53125 0 L 1.609375 0 L 1.609375 -2.890625 C 1.609375 -3.921875 2 -4.46875 2.828125 -4.46875 C 3.390625 -4.46875 3.71875 -4.265625 3.71875 -3.609375 L 3.71875 0 L 4.796875 0 Z M 4.796875 -0.125 "/>
</symbol>
</g>
</defs>
<g id="surface69">
<rect x="0" y="0" width="504" height="504" style="fill:rgb(100%,100%,100%);fill-opacity:1;stroke:none;"/>
<path style="fill:none;stroke-width:1.5;stroke-linecap:round;stroke-linejoin:round;stroke:rgb(66.27451%,66.27451%,66.27451%);stroke-opacity:1;stroke-miterlimit:10;" d="M 240.921875 251.640625 L 240.882812 251.527344 L 240.640625 250.792969 L 240.058594 249.015625 L 239.082031 246.027344 L 237.738281 241.929688 L 236.136719 237.042969 L 234.410156 231.765625 L 232.671875 226.472656 L 231.015625 221.410156 L 229.480469 216.722656 L 228.074219 212.4375 L 226.792969 208.519531 L 225.605469 204.894531 L 224.480469 201.472656 L 223.394531 198.15625 L 222.761719 196.222656 L 221.691406 192.953125 L 220.597656 189.613281 L 219.453125 186.121094 L 218.226562 182.382812 L 216.894531 178.3125 L 215.429688 173.84375 L 213.832031 168.964844 L 212.121094 163.742188 L 210.355469 158.351562 L 208.632812 153.097656 L 207.082031 148.359375 L 205.828125 144.539062 L 204.960938 141.890625 L 204.484375 140.4375 L 204.320312 139.933594 L 204.304688 139.890625 "/>
<path style="fill:none;stroke-width:1.425;stroke-linecap:round;stroke-linejoin:round;stroke:rgb(66.27451%,66.27451%,66.27451%);stroke-opacity:1;stroke-miterlimit:10;" d="M 223.878906 307.820312 L 223.769531 307.90625 L 223.082031 308.445312 L 221.464844 309.710938 L 218.871094 311.746094 L 215.527344 314.371094 L 211.804688 317.292969 L 208.0625 320.226562 L 204.542969 322.988281 L 201.34375 325.496094 L 198.464844 327.753906 L 195.847656 329.808594 L 193.410156 331.71875 L 191.054688 333.566406 L 190.25 334.199219 L 187.929688 336.019531 L 185.539062 337.894531 L 182.996094 339.890625 L 180.207031 342.074219 L 177.105469 344.507812 L 173.664062 347.207031 L 169.9375 350.128906 L 166.109375 353.136719 L 162.484375 355.976562 L 159.457031 358.355469 L 157.335938 360.015625 L 156.214844 360.894531 L 155.878906 361.15625 L 155.867188 361.167969 "/>
<path style="fill:none;stroke-width:1.125;stroke-linecap:round;stroke-linejoin:round;stroke:rgb(66.27451%,66.27451%,66.27451%);stroke-opacity:1;stroke-miterlimit:10;" d="M 285.957031 274.003906 L 286.085938 273.960938 L 286.898438 273.679688 L 288.816406 273.019531 L 291.917969 271.945312 L 295.957031 270.550781 L 300.5 268.984375 L 305.121094 267.390625 L 309.507812 265.875 L 313.523438 264.488281 L 317.144531 263.238281 L 320.425781 262.105469 L 323.46875 261.054688 L 326.382812 260.050781 L 328.265625 259.398438 L 331.121094 258.414062 L 334.054688 257.402344 L 337.167969 256.328125 L 340.566406 255.152344 L 344.332031 253.851562 L 348.511719 252.410156 L 353.050781 250.84375 L 357.757812 249.21875 L 362.296875 247.652344 L 366.210938 246.300781 L 369.101562 245.304688 L 370.78125 244.722656 L 371.414062 244.503906 L 371.484375 244.480469 "/>
<path style="fill:none;stroke-width:6;stroke-linecap:round;stroke-linejoin:round;stroke:rgb(66.27451%,66.27451%,66.27451%);stroke-opacity:1;stroke-miterlimit:10;" d="M 222.898438 264.890625 L 222.734375 264.777344 L 221.792969 264.105469 L 219.871094 262.734375 L 217.371094 260.953125 L 214.839844 259.144531 L 212.585938 257.539062 L 210.652344 256.160156 L 208.933594 254.9375 L 207.503906 253.914062 L 205.890625 252.765625 L 204.160156 251.53125 L 202.175781 250.117188 L 199.84375 248.457031 L 197.222656 246.585938 L 194.617188 244.730469 L 192.585938 243.277344 L 191.535156 242.53125 L 191.324219 242.382812 "/>
<path style="fill:none;stroke-width:1.65;stroke-linecap:round;stroke-linejoin:round;stroke:rgb(66.27451%,66.27451%,66.27451%);stroke-opacity:1;stroke-miterlimit:10;" d="M 270.691406 114.15625 L 270.5 114.140625 L 269.382812 114.039062 L 267.046875 113.828125 L 263.894531 113.542969 L 260.585938 113.246094 L 257.554688 112.972656 L 254.933594 112.734375 L 252.632812 112.527344 L 250.503906 112.335938 L 249.75 112.265625 L 247.675781 112.078125 L 245.464844 111.878906 L 242.957031 111.652344 L 240.039062 111.390625 L 236.726562 111.089844 L 233.304688 110.785156 L 230.371094 110.519531 L 228.53125 110.351562 L 227.890625 110.292969 L 227.855469 110.292969 "/>
<path style="fill:none;stroke-width:0.9;stroke-linecap:round;stroke-linejoin:round;stroke:rgb(66.27451%,66.27451%,66.27451%);stroke-opacity:1;stroke-miterlimit:10;" d="M 329.476562 144.789062 L 329.566406 144.898438 L 330.144531 145.582031 L 331.492188 147.179688 L 333.628906 149.714844 L 336.34375 152.941406 L 339.316406 156.46875 L 342.261719 159.964844 L 344.996094 163.214844 L 347.464844 166.144531 L 349.683594 168.773438 L 351.703125 171.175781 L 353.609375 173.4375 L 355.347656 175.5 L 357.191406 177.6875 L 359.09375 179.945312 L 361.125 182.359375 L 363.363281 185.015625 L 365.863281 187.984375 L 368.640625 191.28125 L 371.632812 194.832031 L 374.664062 198.429688 L 377.445312 201.734375 L 379.660156 204.359375 L 381.082031 206.050781 L 381.71875 206.804688 L 381.835938 206.945312 "/>
<path style="fill:none;stroke-width:6.45;stroke-linecap:round;stroke-linejoin:round;stroke:rgb(66.27451%,66.27451%,66.27451%);stroke-opacity:1;stroke-miterlimit:10;" d="M 277.496094 138.585938 L 277.394531 138.660156 L 276.746094 139.136719 L 275.195312 140.277344 L 272.613281 142.167969 L 269.136719 144.722656 L 265.066406 147.710938 L 260.765625 150.871094 L 256.527344 153.980469 L 252.542969 156.90625 L 248.894531 159.582031 L 245.578125 162.019531 L 242.546875 164.246094 L 239.714844 166.324219 L 237.003906 168.3125 L 234.65625 170.035156 L 232.007812 171.980469 L 229.296875 173.96875 L 226.449219 176.0625 L 223.382812 178.3125 L 220.015625 180.785156 L 216.308594 183.507812 L 212.261719 186.476562 L 207.960938 189.636719 L 203.601562 192.835938 L 199.488281 195.855469 L 195.980469 198.429688 L 193.378906 200.339844 L 191.808594 201.492188 L 191.152344 201.976562 L 191.046875 202.054688 "/>
<path style="fill:none;stroke-width:1.5;stroke-linecap:round;stroke-linejoin:round;stroke:rgb(66.27451%,66.27451%,66.27451%);stroke-opacity:1;stroke-miterlimit:10;" d="M 204.753906 141.257812 L 204.789062 141.375 L 205.03125 142.105469 L 205.613281 143.882812 L 206.59375 146.871094 L 207.933594 150.96875 L 209.535156 155.855469 L 211.265625 161.132812 L 213 166.429688 L 214.65625 171.488281 L 216.195312 176.175781 L 217.597656 180.460938 L 218.882812 184.378906 L 220.070312 188.003906 L 221.191406 191.429688 L 222.277344 194.746094 L 222.910156 196.675781 L 223.984375 199.949219 L 225.078125 203.285156 L 226.21875 206.777344 L 227.445312 210.515625 L 228.78125 214.585938 L 230.242188 219.054688 L 231.84375 223.933594 L 233.554688 229.15625 L 235.320312 234.546875 L 237.042969 239.804688 L 238.59375 244.539062 L 239.84375 248.359375 L 240.714844 251.007812 L 241.1875 252.460938 L 241.355469 252.964844 L 241.367188 253.007812 "/>
<path style="fill:none;stroke-width:1.65;stroke-linecap:round;stroke-linejoin:round;stroke:rgb(66.27451%,66.27451%,66.27451%);stroke-opacity:1;stroke-miterlimit:10;" d="M 229.289062 110.421875 L 229.476562 110.4375 L 230.597656 110.539062 L 232.933594 110.75 L 236.085938 111.035156 L 239.394531 111.332031 L 242.421875 111.605469 L 245.046875 111.84375 L 247.34375 112.050781 L 249.472656 112.242188 L 250.230469 112.308594 L 252.304688 112.496094 L 254.515625 112.695312 L 257.023438 112.921875 L 259.941406 113.1875 L 263.253906 113.484375 L 266.671875 113.792969 L 269.605469 114.058594 L 271.445312 114.226562 L 272.085938 114.28125 L 272.125 114.285156 "/>
<path style="fill:none;stroke-width:1.2;stroke-linecap:round;stroke-linejoin:round;stroke:rgb(66.27451%,66.27451%,66.27451%);stroke-opacity:1;stroke-miterlimit:10;" d="M 184.484375 141.863281 L 184.4375 142.035156 L 184.164062 143.078125 L 183.578125 145.316406 L 182.75 148.460938 L 181.84375 151.914062 L 180.980469 155.1875 L 180.222656 158.078125 L 179.558594 160.601562 L 178.960938 162.878906 L 178.394531 165.039062 L 177.828125 167.183594 L 177.234375 169.457031 L 176.566406 171.992188 L 175.800781 174.914062 L 174.925781 178.242188 L 173.988281 181.796875 L 173.117188 185.113281 L 172.46875 187.585938 L 172.136719 188.855469 L 172.058594 189.140625 "/>
<path style="fill:none;stroke-width:1.425;stroke-linecap:round;stroke-linejoin:round;stroke:rgb(66.27451%,66.27451%,66.27451%);stroke-opacity:1;stroke-miterlimit:10;" d="M 157 360.28125 L 157.109375 360.195312 L 157.796875 359.65625 L 159.414062 358.386719 L 162.007812 356.351562 L 165.355469 353.726562 L 169.074219 350.808594 L 172.816406 347.875 L 176.335938 345.113281 L 179.535156 342.601562 L 182.414062 340.34375 L 185.03125 338.292969 L 187.46875 336.378906 L 189.824219 334.535156 L 190.628906 333.902344 L 192.949219 332.082031 L 195.339844 330.207031 L 197.882812 328.210938 L 200.671875 326.023438 L 203.773438 323.589844 L 207.214844 320.890625 L 210.941406 317.96875 L 214.769531 314.964844 L 218.394531 312.121094 L 221.421875 309.746094 L 223.542969 308.082031 L 224.664062 307.203125 L 225 306.941406 L 225.011719 306.929688 "/>
<path style="fill:none;stroke-width:2.85;stroke-linecap:round;stroke-linejoin:round;stroke:rgb(66.27451%,66.27451%,66.27451%);stroke-opacity:1;stroke-miterlimit:10;" d="M 136.359375 347.367188 L 136.386719 347.234375 L 136.566406 346.40625 L 136.988281 344.441406 L 137.679688 341.246094 L 138.582031 337.058594 L 139.605469 332.308594 L 140.65625 327.441406 L 141.660156 322.789062 L 142.582031 318.511719 L 143.417969 314.644531 L 144.171875 311.140625 L 144.871094 307.90625 L 145.535156 304.828125 L 146.109375 302.171875 L 146.753906 299.171875 L 147.421875 296.09375 L 148.125 292.832031 L 148.890625 289.28125 L 149.738281 285.347656 L 150.675781 280.996094 L 151.699219 276.261719 L 152.765625 271.320312 L 153.804688 266.503906 L 154.71875 262.257812 L 155.417969 259.023438 L 155.847656 257.027344 L 156.03125 256.175781 L 156.0625 256.035156 "/>
<path style="fill:none;stroke-width:1.125;stroke-linecap:round;stroke-linejoin:round;stroke:rgb(66.27451%,66.27451%,66.27451%);stroke-opacity:1;stroke-miterlimit:10;" d="M 370.121094 244.949219 L 369.992188 244.996094 L 369.179688 245.273438 L 367.265625 245.9375 L 364.164062 247.007812 L 360.121094 248.402344 L 355.578125 249.972656 L 350.960938 251.566406 L 346.570312 253.082031 L 342.554688 254.464844 L 338.9375 255.714844 L 335.652344 256.847656 L 332.609375 257.898438 L 329.699219 258.90625 L 327.8125 259.554688 L 324.960938 260.539062 L 322.027344 261.554688 L 318.914062 262.628906 L 315.515625 263.800781 L 311.746094 265.101562 L 307.566406 266.542969 L 303.03125 268.109375 L 298.320312 269.738281 L 293.785156 271.300781 L 289.867188 272.652344 L 286.980469 273.652344 L 285.296875 274.230469 L 284.664062 274.449219 L 284.597656 274.472656 "/>
<path style="fill:none;stroke-width:0.9;stroke-linecap:round;stroke-linejoin:round;stroke:rgb(66.27451%,66.27451%,66.27451%);stroke-opacity:1;stroke-miterlimit:10;" d="M 380.910156 205.84375 L 380.816406 205.734375 L 380.242188 205.050781 L 378.894531 203.453125 L 376.757812 200.917969 L 374.042969 197.691406 L 371.070312 194.164062 L 368.125 190.667969 L 365.386719 187.417969 L 362.917969 184.488281 L 360.703125 181.859375 L 358.679688 179.457031 L 356.777344 177.195312 L 355.039062 175.132812 L 353.195312 172.945312 L 351.292969 170.6875 L 349.261719 168.273438 L 347.023438 165.617188 L 344.519531 162.648438 L 341.742188 159.351562 L 338.753906 155.800781 L 335.722656 152.203125 L 332.941406 148.898438 L 330.726562 146.273438 L 329.304688 144.582031 L 328.664062 143.828125 L 328.546875 143.6875 "/>
<path style="fill:none;stroke-width:6;stroke-linecap:round;stroke-linejoin:round;stroke:rgb(66.27451%,66.27451%,66.27451%);stroke-opacity:1;stroke-miterlimit:10;" d="M 192.5 243.21875 L 192.660156 243.332031 L 193.605469 244.007812 L 195.523438 245.375 L 198.027344 247.160156 L 200.558594 248.964844 L 202.8125 250.570312 L 204.746094 251.949219 L 206.460938 253.171875 L 207.894531 254.195312 L 209.503906 255.34375 L 211.234375 256.578125 L 213.222656 257.992188 L 215.550781 259.652344 L 218.175781 261.523438 L 220.777344 263.382812 L 222.8125 264.832031 L 223.859375 265.578125 L 224.070312 265.726562 "/>
<path style="fill:none;stroke-width:6.45;stroke-linecap:round;stroke-linejoin:round;stroke:rgb(66.27451%,66.27451%,66.27451%);stroke-opacity:1;stroke-miterlimit:10;" d="M 192.207031 201.199219 L 192.308594 201.125 L 192.957031 200.652344 L 194.507812 199.511719 L 197.085938 197.617188 L 200.566406 195.066406 L 204.632812 192.078125 L 208.9375 188.917969 L 213.175781 185.808594 L 217.160156 182.882812 L 220.808594 180.203125 L 224.121094 177.769531 L 227.15625 175.542969 L 229.988281 173.464844 L 232.695312 171.476562 L 235.042969 169.75 L 237.691406 167.808594 L 240.402344 165.816406 L 243.25 163.726562 L 246.320312 161.472656 L 249.683594 159.003906 L 253.394531 156.28125 L 257.441406 153.308594 L 261.742188 150.152344 L 266.097656 146.953125 L 270.214844 143.933594 L 273.722656 141.355469 L 276.324219 139.445312 L 277.894531 138.296875 L 278.550781 137.8125 L 278.65625 137.734375 "/>
<path style="fill:none;stroke-width:1.2;stroke-linecap:round;stroke-linejoin:round;stroke:rgb(66.27451%,66.27451%,66.27451%);stroke-opacity:1;stroke-miterlimit:10;" d="M 172.425781 187.746094 L 172.472656 187.574219 L 172.746094 186.53125 L 173.332031 184.292969 L 174.160156 181.148438 L 175.066406 177.695312 L 175.929688 174.421875 L 176.6875 171.53125 L 177.351562 169.007812 L 177.949219 166.734375 L 178.515625 164.574219 L 179.082031 162.425781 L 179.675781 160.15625 L 180.34375 157.621094 L 181.109375 154.699219 L 181.984375 151.367188 L 182.921875 147.816406 L 183.792969 144.496094 L 184.441406 142.023438 L 184.773438 140.757812 L 184.851562 140.472656 L 184.851562 140.46875 "/>
<path style="fill:none;stroke-width:2.85;stroke-linecap:round;stroke-linejoin:round;stroke:rgb(66.27451%,66.27451%,66.27451%);stroke-opacity:1;stroke-miterlimit:10;" d="M 155.757812 257.445312 L 155.730469 257.574219 L 155.550781 258.40625 L 155.128906 260.367188 L 154.4375 263.5625 L 153.535156 267.753906 L 152.507812 272.503906 L 151.460938 277.367188 L 150.457031 282.023438 L 149.53125 286.300781 L 148.699219 290.164062 L 147.941406 293.667969 L 147.246094 296.90625 L 146.582031 299.984375 L 146.007812 302.640625 L 145.359375 305.636719 L 144.695312 308.71875 L 143.992188 311.980469 L 143.226562 315.53125 L 142.378906 319.460938 L 141.4375 323.816406 L 140.417969 328.550781 L 139.351562 333.492188 L 138.3125 338.308594 L 137.398438 342.550781 L 136.699219 345.785156 L 136.269531 347.78125 L 136.085938 348.632812 L 136.054688 348.773438 "/>
<path style="fill-rule:nonzero;fill:rgb(66.27451%,66.27451%,66.27451%);fill-opacity:1;stroke-width:0.75;stroke-linecap:round;stroke-linejoin:round;stroke:rgb(66.27451%,66.27451%,66.27451%);stroke-opacity:1;stroke-miterlimit:10;" d="M 212.960938 152.207031 L 212.042969 151.382812 L 211.09375 150.472656 L 210.109375 149.441406 L 209.066406 148.25 L 207.941406 146.796875 L 206.652344 144.847656 L 204.375 139.867188 L 204.234375 139.914062 L 205.34375 145.277344 L 205.460938 147.609375 L 205.414062 149.449219 L 205.28125 151.023438 L 205.09375 152.4375 L 204.867188 153.734375 L 204.613281 154.941406 Z M 212.960938 152.207031 "/>
<path style="fill-rule:nonzero;fill:rgb(66.27451%,66.27451%,66.27451%);fill-opacity:1;stroke-width:0.75;stroke-linecap:round;stroke-linejoin:round;stroke:rgb(66.27451%,66.27451%,66.27451%);stroke-opacity:1;stroke-miterlimit:10;" d="M 164.484375 348.824219 L 164.027344 349.96875 L 163.492188 351.171875 L 162.863281 352.453125 L 162.097656 353.835938 L 161.117188 355.390625 L 159.722656 357.265625 L 155.820312 361.113281 L 155.910156 361.226562 L 160.574219 358.351562 L 162.730469 357.445312 L 164.472656 356.863281 L 166 356.449219 L 167.390625 356.140625 L 168.6875 355.910156 L 169.90625 355.738281 Z M 164.484375 348.824219 "/>
<path style="fill-rule:nonzero;fill:rgb(66.27451%,66.27451%,66.27451%);fill-opacity:1;stroke-width:0.75;stroke-linecap:round;stroke-linejoin:round;stroke:rgb(66.27451%,66.27451%,66.27451%);stroke-opacity:1;stroke-miterlimit:10;" d="M 359.304688 253.332031 L 360.113281 252.398438 L 361.007812 251.4375 L 362.023438 250.433594 L 363.199219 249.375 L 364.632812 248.226562 L 366.5625 246.90625 L 371.507812 244.546875 L 371.460938 244.414062 L 366.113281 245.605469 L 363.78125 245.757812 L 361.945312 245.738281 L 360.363281 245.632812 L 358.949219 245.46875 L 357.648438 245.261719 L 356.4375 245.027344 Z M 359.304688 253.332031 "/>
<path style="fill-rule:nonzero;fill:rgb(66.27451%,66.27451%,66.27451%);fill-opacity:1;stroke-width:0.75;stroke-linecap:round;stroke-linejoin:round;stroke:rgb(66.27451%,66.27451%,66.27451%);stroke-opacity:1;stroke-miterlimit:10;" d="M 205.601562 247.164062 L 204.371094 247.046875 L 203.070312 246.875 L 201.664062 246.632812 L 200.117188 246.289062 L 198.351562 245.785156 L 196.15625 244.980469 L 191.367188 242.324219 L 191.285156 242.441406 L 195.355469 246.101562 L 196.835938 247.914062 L 197.886719 249.421875 L 198.714844 250.769531 L 199.402344 252.019531 L 199.988281 253.195312 L 200.5 254.316406 Z M 205.601562 247.164062 "/>
<path style="fill-rule:nonzero;fill:rgb(66.27451%,66.27451%,66.27451%);fill-opacity:1;stroke-width:0.75;stroke-linecap:round;stroke-linejoin:round;stroke:rgb(66.27451%,66.27451%,66.27451%);stroke-opacity:1;stroke-miterlimit:10;" d="M 242.589844 107.210938 L 241.472656 107.730469 L 240.257812 108.238281 L 238.925781 108.738281 L 237.417969 109.222656 L 235.636719 109.683594 L 233.335938 110.09375 L 227.859375 110.21875 L 227.847656 110.363281 L 233.214844 111.46875 L 235.402344 112.285156 L 237.070312 113.054688 L 238.46875 113.800781 L 239.691406 114.53125 L 240.792969 115.25 L 241.800781 115.960938 Z M 242.589844 107.210938 "/>
<path style="fill-rule:nonzero;fill:rgb(66.27451%,66.27451%,66.27451%);fill-opacity:1;stroke-width:0.75;stroke-linecap:round;stroke-linejoin:round;stroke:rgb(66.27451%,66.27451%,66.27451%);stroke-opacity:1;stroke-miterlimit:10;" d="M 369.199219 198.761719 L 370.359375 199.183594 L 371.582031 199.671875 L 372.882812 200.257812 L 374.292969 200.976562 L 375.878906 201.902344 L 377.804688 203.226562 L 381.78125 206.992188 L 381.890625 206.898438 L 378.859375 202.339844 L 377.878906 200.21875 L 377.234375 198.496094 L 376.765625 196.984375 L 376.410156 195.605469 L 376.136719 194.316406 L 375.917969 193.101562 Z M 369.199219 198.761719 "/>
<path style="fill-rule:nonzero;fill:rgb(66.27451%,66.27451%,66.27451%);fill-opacity:1;stroke-width:0.75;stroke-linecap:round;stroke-linejoin:round;stroke:rgb(66.27451%,66.27451%,66.27451%);stroke-opacity:1;stroke-miterlimit:10;" d="M 200.054688 189.992188 L 199.558594 191.121094 L 198.988281 192.304688 L 198.316406 193.5625 L 197.507812 194.925781 L 196.476562 196.445312 L 195.027344 198.277344 L 191.003906 201.996094 L 191.089844 202.109375 L 195.839844 199.386719 L 198.023438 198.550781 L 199.785156 198.023438 L 201.324219 197.660156 L 202.726562 197.394531 L 204.027344 197.207031 L 205.253906 197.070312 Z M 200.054688 189.992188 "/>
<path style="fill-rule:nonzero;fill:rgb(66.27451%,66.27451%,66.27451%);fill-opacity:1;stroke-width:0.75;stroke-linecap:round;stroke-linejoin:round;stroke:rgb(66.27451%,66.27451%,66.27451%);stroke-opacity:1;stroke-miterlimit:10;" d="M 232.710938 240.691406 L 233.628906 241.515625 L 234.578125 242.425781 L 235.566406 243.457031 L 236.605469 244.648438 L 237.730469 246.101562 L 239.019531 248.050781 L 241.300781 253.03125 L 241.4375 252.988281 L 240.328125 247.621094 L 240.214844 245.289062 L 240.261719 243.453125 L 240.394531 241.875 L 240.578125 240.460938 L 240.804688 239.164062 L 241.058594 237.957031 Z M 232.710938 240.691406 "/>
<path style="fill-rule:nonzero;fill:rgb(66.27451%,66.27451%,66.27451%);fill-opacity:1;stroke-width:0.75;stroke-linecap:round;stroke-linejoin:round;stroke:rgb(66.27451%,66.27451%,66.27451%);stroke-opacity:1;stroke-miterlimit:10;" d="M 257.386719 117.367188 L 258.507812 116.847656 L 259.71875 116.335938 L 261.054688 115.839844 L 262.5625 115.355469 L 264.339844 114.894531 L 266.640625 114.484375 L 272.117188 114.359375 L 272.132812 114.214844 L 266.765625 113.109375 L 264.574219 112.292969 L 262.910156 111.523438 L 261.511719 110.777344 L 260.289062 110.046875 L 259.1875 109.328125 L 258.175781 108.617188 Z M 257.386719 117.367188 "/>
<path style="fill-rule:nonzero;fill:rgb(66.27451%,66.27451%,66.27451%);fill-opacity:1;stroke-width:0.75;stroke-linecap:round;stroke-linejoin:round;stroke:rgb(66.27451%,66.27451%,66.27451%);stroke-opacity:1;stroke-miterlimit:10;" d="M 171.472656 174.097656 L 171.796875 175.285156 L 172.097656 176.566406 L 172.371094 177.964844 L 172.59375 179.535156 L 172.753906 181.363281 L 172.777344 183.703125 L 171.992188 189.121094 L 172.128906 189.160156 L 174.109375 184.050781 L 175.28125 182.027344 L 176.316406 180.511719 L 177.285156 179.257812 L 178.207031 178.171875 L 179.097656 177.207031 L 179.96875 176.328125 Z M 171.472656 174.097656 "/>
<path style="fill-rule:nonzero;fill:rgb(66.27451%,66.27451%,66.27451%);fill-opacity:1;stroke-width:0.75;stroke-linecap:round;stroke-linejoin:round;stroke:rgb(66.27451%,66.27451%,66.27451%);stroke-opacity:1;stroke-miterlimit:10;" d="M 216.394531 319.273438 L 216.851562 318.128906 L 217.386719 316.925781 L 218.015625 315.648438 L 218.78125 314.261719 L 219.761719 312.707031 L 221.15625 310.832031 L 225.058594 306.988281 L 224.96875 306.875 L 220.304688 309.746094 L 218.148438 310.652344 L 216.410156 311.234375 L 214.878906 311.648438 L 213.488281 311.957031 L 212.191406 312.1875 L 210.972656 312.363281 Z M 216.394531 319.273438 "/>
<path style="fill-rule:nonzero;fill:rgb(66.27451%,66.27451%,66.27451%);fill-opacity:1;stroke-width:0.75;stroke-linecap:round;stroke-linejoin:round;stroke:rgb(66.27451%,66.27451%,66.27451%);stroke-opacity:1;stroke-miterlimit:10;" d="M 157.316406 271.039062 L 156.941406 269.863281 L 156.582031 268.597656 L 156.25 267.214844 L 155.953125 265.65625 L 155.714844 263.835938 L 155.585938 261.503906 L 156.132812 256.050781 L 155.992188 256.023438 L 154.242188 261.210938 L 153.160156 263.285156 L 152.195312 264.847656 L 151.28125 266.140625 L 150.410156 267.269531 L 149.558594 268.273438 L 148.730469 269.1875 Z M 157.316406 271.039062 "/>
<path style="fill-rule:nonzero;fill:rgb(66.27451%,66.27451%,66.27451%);fill-opacity:1;stroke-width:0.75;stroke-linecap:round;stroke-linejoin:round;stroke:rgb(66.27451%,66.27451%,66.27451%);stroke-opacity:1;stroke-miterlimit:10;" d="M 296.773438 265.625 L 295.964844 266.554688 L 295.070312 267.519531 L 294.058594 268.519531 L 292.878906 269.578125 L 291.445312 270.726562 L 289.515625 272.046875 L 284.574219 274.40625 L 284.621094 274.542969 L 289.964844 273.347656 L 292.296875 273.195312 L 294.136719 273.214844 L 295.714844 273.324219 L 297.132812 273.488281 L 298.429688 273.691406 L 299.640625 273.925781 Z M 296.773438 265.625 "/>
<path style="fill-rule:nonzero;fill:rgb(66.27451%,66.27451%,66.27451%);fill-opacity:1;stroke-width:0.75;stroke-linecap:round;stroke-linejoin:round;stroke:rgb(66.27451%,66.27451%,66.27451%);stroke-opacity:1;stroke-miterlimit:10;" d="M 341.183594 151.871094 L 340.023438 151.449219 L 338.804688 150.960938 L 337.503906 150.375 L 336.09375 149.65625 L 334.507812 148.730469 L 332.582031 147.40625 L 328.601562 143.640625 L 328.492188 143.734375 L 331.527344 148.292969 L 332.507812 150.414062 L 333.152344 152.136719 L 333.617188 153.648438 L 333.972656 155.027344 L 334.25 156.316406 L 334.464844 157.527344 Z M 341.183594 151.871094 "/>
<path style="fill-rule:nonzero;fill:rgb(66.27451%,66.27451%,66.27451%);fill-opacity:1;stroke-width:0.75;stroke-linecap:round;stroke-linejoin:round;stroke:rgb(66.27451%,66.27451%,66.27451%);stroke-opacity:1;stroke-miterlimit:10;" d="M 209.796875 260.945312 L 211.023438 261.0625 L 212.328125 261.234375 L 213.730469 261.476562 L 215.277344 261.820312 L 217.042969 262.324219 L 219.238281 263.128906 L 224.027344 265.785156 L 224.113281 265.667969 L 220.039062 262.007812 L 218.5625 260.195312 L 217.511719 258.6875 L 216.683594 257.339844 L 215.992188 256.089844 L 215.40625 254.914062 L 214.894531 253.792969 Z M 209.796875 260.945312 "/>
<path style="fill-rule:nonzero;fill:rgb(66.27451%,66.27451%,66.27451%);fill-opacity:1;stroke-width:0.75;stroke-linecap:round;stroke-linejoin:round;stroke:rgb(66.27451%,66.27451%,66.27451%);stroke-opacity:1;stroke-miterlimit:10;" d="M 269.648438 149.796875 L 270.144531 148.667969 L 270.714844 147.480469 L 271.382812 146.222656 L 272.195312 144.863281 L 273.222656 143.34375 L 274.675781 141.511719 L 278.699219 137.792969 L 278.613281 137.675781 L 273.859375 140.398438 L 271.679688 141.238281 L 269.917969 141.761719 L 268.378906 142.128906 L 266.976562 142.390625 L 265.675781 142.582031 L 264.449219 142.714844 Z M 269.648438 149.796875 "/>
<path style="fill-rule:nonzero;fill:rgb(66.27451%,66.27451%,66.27451%);fill-opacity:1;stroke-width:0.75;stroke-linecap:round;stroke-linejoin:round;stroke:rgb(66.27451%,66.27451%,66.27451%);stroke-opacity:1;stroke-miterlimit:10;" d="M 185.4375 155.515625 L 185.113281 154.324219 L 184.8125 153.042969 L 184.539062 151.644531 L 184.316406 150.078125 L 184.15625 148.246094 L 184.132812 145.910156 L 184.921875 140.488281 L 184.78125 140.453125 L 182.800781 145.558594 L 181.628906 147.582031 L 180.59375 149.097656 L 179.625 150.351562 L 178.703125 151.4375 L 177.8125 152.40625 L 176.941406 153.28125 Z M 185.4375 155.515625 "/>
<path style="fill-rule:nonzero;fill:rgb(66.27451%,66.27451%,66.27451%);fill-opacity:1;stroke-width:0.75;stroke-linecap:round;stroke-linejoin:round;stroke:rgb(66.27451%,66.27451%,66.27451%);stroke-opacity:1;stroke-miterlimit:10;" d="M 134.796875 333.769531 L 135.175781 334.945312 L 135.535156 336.210938 L 135.867188 337.597656 L 136.164062 339.152344 L 136.402344 340.972656 L 136.527344 343.308594 L 135.984375 348.757812 L 136.125 348.789062 L 137.875 343.597656 L 138.953125 341.523438 L 139.921875 339.964844 L 140.832031 338.667969 L 141.707031 337.542969 L 142.554688 336.539062 L 143.382812 335.625 Z M 134.796875 333.769531 "/>
<path style="fill-rule:nonzero;fill:rgb(0%,0%,100%);fill-opacity:1;stroke-width:0.75;stroke-linecap:round;stroke-linejoin:round;stroke:rgb(0%,0%,0%);stroke-opacity:1;stroke-miterlimit:10;" d="M 286.480469 285.699219 C 286.480469 304.699219 271.078125 320.097656 252.078125 320.097656 C 233.082031 320.097656 217.679688 304.699219 217.679688 285.699219 C 217.679688 266.699219 233.082031 251.300781 252.078125 251.300781 C 271.078125 251.300781 286.480469 266.699219 286.480469 285.699219 "/>
<path style="fill-rule:nonzero;fill:rgb(0%,0%,100%);fill-opacity:1;stroke-width:0.75;stroke-linecap:round;stroke-linejoin:round;stroke:rgb(0%,0%,0%);stroke-opacity:1;stroke-miterlimit:10;" d="M 340.785156 117.378906 C 340.785156 136.375 325.382812 151.777344 306.386719 151.777344 C 287.386719 151.777344 271.984375 136.375 271.984375 117.378906 C 271.984375 98.378906 287.386719 82.976562 306.386719 82.976562 C 325.382812 82.976562 340.785156 98.378906 340.785156 117.378906 "/>
<path style="fill-rule:nonzero;fill:rgb(0%,100%,0%);fill-opacity:1;stroke-width:0.75;stroke-linecap:round;stroke-linejoin:round;stroke:rgb(0%,0%,0%);stroke-opacity:1;stroke-miterlimit:10;" d="M 227.992188 107.199219 C 227.992188 126.199219 212.59375 141.601562 193.59375 141.601562 C 174.59375 141.601562 159.195312 126.199219 159.195312 107.199219 C 159.195312 88.203125 174.59375 72.800781 193.59375 72.800781 C 212.59375 72.800781 227.992188 88.203125 227.992188 107.199219 "/>
<path style="fill-rule:nonzero;fill:rgb(0%,100%,0%);fill-opacity:1;stroke-width:0.75;stroke-linecap:round;stroke-linejoin:round;stroke:rgb(0%,0%,0%);stroke-opacity:1;stroke-miterlimit:10;" d="M 163.199219 382.398438 C 163.199219 401.398438 147.796875 416.800781 128.800781 416.800781 C 109.800781 416.800781 94.398438 401.398438 94.398438 382.398438 C 94.398438 363.402344 109.800781 348 128.800781 348 C 147.796875 348 163.199219 363.402344 163.199219 382.398438 "/>
<path style="fill-rule:nonzero;fill:rgb(0%,100%,0%);fill-opacity:1;stroke-width:0.75;stroke-linecap:round;stroke-linejoin:round;stroke:rgb(0%,0%,0%);stroke-opacity:1;stroke-miterlimit:10;" d="M 438.398438 233.253906 C 438.398438 252.253906 423 267.65625 404 267.65625 C 385 267.65625 369.601562 252.253906 369.601562 233.253906 C 369.601562 214.257812 385 198.855469 404 198.855469 C 423 198.855469 438.398438 214.257812 438.398438 233.253906 "/>
<path style="fill-rule:nonzero;fill:rgb(100%,0%,0%);fill-opacity:1;stroke-width:0.75;stroke-linecap:round;stroke-linejoin:round;stroke:rgb(0%,0%,0%);stroke-opacity:1;stroke-miterlimit:10;" d="M 197.714844 222.410156 C 197.714844 241.410156 182.316406 256.8125 163.316406 256.8125 C 144.316406 256.8125 128.917969 241.410156 128.917969 222.410156 C 128.917969 203.410156 144.316406 188.011719 163.316406 188.011719 C 182.316406 188.011719 197.714844 203.410156 197.714844 222.410156 "/>
<g style="fill:rgb(0%,0%,0%);fill-opacity:1;">
  <use xlink:href="#glyph0-1" x="242.078125" y="289.359375"/>
  <use xlink:href="#glyph0-2" x="246.074219" y="289.359375"/>
  <use xlink:href="#glyph0-3" x="254.078125" y="289.359375"/>
</g>
<g style="fill:rgb(0%,0%,0%);fill-opacity:1;">
  <use xlink:href="#glyph0-4" x="294.886719" y="121.039062"/>
  <use xlink:href="#glyph0-5" x="303.550781" y="121.039062"/>
  <use xlink:href="#glyph0-6" x="309.550781" y="121.039062"/>
</g>
<g style="fill:rgb(0%,0%,0%);fill-opacity:1;">
  <use xlink:href="#glyph0-2" x="181.59375" y="110.859375"/>
  <use xlink:href="#glyph0-7" x="189.597656" y="110.859375"/>
  <use xlink:href="#glyph0-8" x="196.929688" y="110.859375"/>
</g>
<g style="fill:rgb(0%,0%,0%);fill-opacity:1;">
  <use xlink:href="#glyph0-9" x="117.800781" y="386.058594"/>
  <use xlink:href="#glyph0-10" x="125.132812" y="386.058594"/>
  <use xlink:href="#glyph0-3" x="131.804688" y="386.058594"/>
</g>
<g style="fill:rgb(0%,0%,0%);fill-opacity:1;">
  <use xlink:href="#glyph0-2" x="385.5" y="236.914062"/>
  <use xlink:href="#glyph0-7" x="393.503906" y="236.914062"/>
  <use xlink:href="#glyph0-11" x="400.835938" y="236.914062"/>
  <use xlink:href="#glyph0-12" x="406.667969" y="236.914062"/>
  <use xlink:href="#glyph0-10" x="415.332031" y="236.914062"/>
</g>
<g style="fill:rgb(0%,0%,0%);fill-opacity:1;">
  <use xlink:href="#glyph0-13" x="145.816406" y="226.070312"/>
  <use xlink:href="#glyph0-5" x="154.241211" y="226.070312"/>
  <use xlink:href="#glyph0-14" x="160.241211" y="226.070312"/>
  <use xlink:href="#glyph0-12" x="166.241211" y="226.070312"/>
  <use xlink:href="#glyph0-15" x="174.545898" y="226.070312"/>
</g>
<path style="fill-rule:nonzero;fill:rgb(0%,100%,0%);fill-opacity:1;stroke-width:0.75;stroke-linecap:round;stroke-linejoin:round;stroke:rgb(46.666667%,46.666667%,46.666667%);stroke-opacity:1;stroke-miterlimit:10;" d="M 74.039062 407.679688 C 74.039062 414.878906 63.238281 414.878906 63.238281 407.679688 C 63.238281 400.480469 74.039062 400.480469 74.039062 407.679688 "/>
<path style="fill-rule:nonzero;fill:rgb(100%,0%,0%);fill-opacity:1;stroke-width:0.75;stroke-linecap:round;stroke-linejoin:round;stroke:rgb(46.666667%,46.666667%,46.666667%);stroke-opacity:1;stroke-miterlimit:10;" d="M 74.039062 419.199219 C 74.039062 426.398438 63.238281 426.398438 63.238281 419.199219 C 63.238281 412 74.039062 412 74.039062 419.199219 "/>
<path style="fill-rule:nonzero;fill:rgb(0%,0%,100%);fill-opacity:1;stroke-width:0.75;stroke-linecap:round;stroke-linejoin:round;stroke:rgb(46.666667%,46.666667%,46.666667%);stroke-opacity:1;stroke-miterlimit:10;" d="M 74.039062 430.71875 C 74.039062 437.921875 63.238281 437.921875 63.238281 430.71875 C 63.238281 423.519531 74.039062 423.519531 74.039062 430.71875 "/>
<g style="fill:rgb(0%,0%,0%);fill-opacity:1;">
  <use xlink:href="#glyph1-1" x="77.28125" y="410.699219"/>
  <use xlink:href="#glyph1-2" x="84.160156" y="410.699219"/>
  <use xlink:href="#glyph1-3" x="89.494141" y="410.699219"/>
  <use xlink:href="#glyph1-4" x="91.624023" y="410.699219"/>
  <use xlink:href="#glyph1-5" x="96.229492" y="410.699219"/>
  <use xlink:href="#glyph1-6" x="101.563477" y="410.699219"/>
  <use xlink:href="#glyph1-7" x="104.805664" y="410.699219"/>
  <use xlink:href="#glyph1-3" x="109.602539" y="410.699219"/>
  <use xlink:href="#glyph1-8" x="111.732422" y="410.699219"/>
  <use xlink:href="#glyph1-9" x="114.399414" y="410.699219"/>
</g>
<g style="fill:rgb(0%,0%,0%);fill-opacity:1;">
  <use xlink:href="#glyph1-10" x="77.28125" y="422.21875"/>
  <use xlink:href="#glyph1-11" x="84.208008" y="422.21875"/>
  <use xlink:href="#glyph1-7" x="89.541992" y="422.21875"/>
  <use xlink:href="#glyph1-8" x="94.291016" y="422.21875"/>
  <use xlink:href="#glyph1-3" x="96.958008" y="422.21875"/>
  <use xlink:href="#glyph1-2" x="99.087891" y="422.21875"/>
  <use xlink:href="#glyph1-12" x="104.421875" y="422.21875"/>
  <use xlink:href="#glyph1-13" x="109.755859" y="422.21875"/>
  <use xlink:href="#glyph1-14" x="112.422852" y="422.21875"/>
  <use xlink:href="#glyph1-15" x="118.535156" y="422.21875"/>
  <use xlink:href="#glyph1-6" x="123.869141" y="422.21875"/>
  <use xlink:href="#glyph1-8" x="127.350586" y="422.21875"/>
  <use xlink:href="#glyph1-2" x="130.017578" y="422.21875"/>
  <use xlink:href="#glyph1-5" x="135.351562" y="422.21875"/>
  <use xlink:href="#glyph1-6" x="140.685547" y="422.21875"/>
</g>
<g style="fill:rgb(0%,0%,0%);fill-opacity:1;">
  <use xlink:href="#glyph1-16" x="77.28125" y="433.738281"/>
  <use xlink:href="#glyph1-11" x="84.208008" y="433.738281"/>
  <use xlink:href="#glyph1-2" x="89.541992" y="433.738281"/>
  <use xlink:href="#glyph1-17" x="94.875977" y="433.738281"/>
  <use xlink:href="#glyph1-18" x="98.070312" y="433.738281"/>
  <use xlink:href="#glyph1-11" x="103.404297" y="433.738281"/>
  <use xlink:href="#glyph1-7" x="108.738281" y="433.738281"/>
  <use xlink:href="#glyph1-8" x="113.487305" y="433.738281"/>
  <use xlink:href="#glyph1-3" x="116.154297" y="433.738281"/>
  <use xlink:href="#glyph1-2" x="118.28418" y="433.738281"/>
  <use xlink:href="#glyph1-12" x="123.618164" y="433.738281"/>
  <use xlink:href="#glyph1-13" x="128.952148" y="433.738281"/>
  <use xlink:href="#glyph1-14" x="131.619141" y="433.738281"/>
  <use xlink:href="#glyph1-15" x="137.731445" y="433.738281"/>
  <use xlink:href="#glyph1-6" x="143.06543" y="433.738281"/>
  <use xlink:href="#glyph1-8" x="146.546875" y="433.738281"/>
  <use xlink:href="#glyph1-2" x="149.213867" y="433.738281"/>
  <use xlink:href="#glyph1-5" x="154.547852" y="433.738281"/>
  <use xlink:href="#glyph1-6" x="159.881836" y="433.738281"/>
</g>
</g>
</svg>
