\relax 
\@writefile{toc}{\contentsline {section}{\numberline {1}Neutral Theory Simulations}{1}}
\@writefile{toc}{\contentsline {subsection}{\numberline {1.1}Question 7}{1}}
\@writefile{lof}{\contentsline {figure}{\numberline {1}{\ignorespaces Time graph of species richness\relax }}{1}}
\@writefile{toc}{\contentsline {subsection}{\numberline {1.2}Question 10}{2}}
\@writefile{lof}{\contentsline {figure}{\numberline {2}{\ignorespaces Time graph of species richness from an initial population with maximum diversity (green) and the minimum number of diversity (red)\relax }}{2}}
\@writefile{toc}{\contentsline {subsection}{\numberline {1.3}Question 14}{3}}
\@writefile{lof}{\contentsline {figure}{\numberline {3}{\ignorespaces Time graph of species richness as a function of species abundance in octaves\relax }}{3}}
\@writefile{toc}{\contentsline {subsection}{\numberline {1.4}Challenge A}{4}}
\@writefile{lof}{\contentsline {figure}{\numberline {4}{\ignorespaces mean species richness as a function of time across a number of repeat simulations. The blue line shows the simulation with an initial community of maximum richness and the red line with an initial community of minimum richness. The green lines are te 97.2 confidence limits for both simulations\relax }}{4}}
\@writefile{toc}{\contentsline {subsection}{\numberline {1.5}Question 17}{5}}
\@writefile{lof}{\contentsline {figure}{\numberline {5}{\ignorespaces Time graph of species richness as a function of species abundance in octaves\relax }}{5}}
\@writefile{toc}{\contentsline {subsection}{\numberline {1.6}Challenge C}{6}}
\@writefile{lof}{\contentsline {figure}{\numberline {6}{\ignorespaces Species richness as a function of generation time for different population sizes\relax }}{6}}
\@writefile{toc}{\contentsline {section}{\numberline {2}Fractals}{7}}
\@writefile{toc}{\contentsline {subsection}{\numberline {2.1}Question 18}{7}}
\@writefile{toc}{\contentsline {subsection}{\numberline {2.2}Question 19}{8}}
\@writefile{lof}{\contentsline {figure}{\numberline {7}{\ignorespaces Chaos game\relax }}{8}}
\@writefile{toc}{\contentsline {subsection}{\numberline {2.3}Challenge E}{9}}
\@writefile{lof}{\contentsline {figure}{\numberline {8}{\ignorespaces Chaos game with the first few points plotted in black and the rest in green.\relax }}{9}}
\@writefile{lof}{\contentsline {figure}{\numberline {9}{\ignorespaces Chaos game with startpoint at (5,3) and instead of the new point being halfway between the new and old point, itâ€™s a third of the way. The first few points are plotted in black again\relax }}{10}}
\@writefile{toc}{\contentsline {subsection}{\numberline {2.4}Question 22}{11}}
\@writefile{lof}{\contentsline {figure}{\numberline {10}{\ignorespaces Spiral\relax }}{11}}
\@writefile{toc}{\contentsline {subsection}{\numberline {2.5}Question 23}{12}}
\@writefile{lof}{\contentsline {figure}{\numberline {11}{\ignorespaces Spiral 2\relax }}{12}}
\@writefile{toc}{\contentsline {subsection}{\numberline {2.6}Question 24}{13}}
\@writefile{lof}{\contentsline {figure}{\numberline {12}{\ignorespaces Tree\relax }}{13}}
\@writefile{toc}{\contentsline {subsection}{\numberline {2.7}Question 26}{14}}
\@writefile{lof}{\contentsline {figure}{\numberline {13}{\ignorespaces Fern 1\relax }}{14}}
\@writefile{toc}{\contentsline {subsection}{\numberline {2.8}Challenge F}{15}}
\@writefile{lof}{\contentsline {figure}{\numberline {14}{\ignorespaces Fern 2 - Colour and lie thickness have been added as additional arguments in the function, and the fern also bends \relax }}{15}}
\@writefile{lof}{\contentsline {figure}{\numberline {15}{\ignorespaces tree\relax }}{16}}
