animal	dam	sire
LO100648	NA	NA
EP100671	NA	NA
UH102212	NA	NA
VV102235	NA	NA
HL102327	NA	NA
BT102350	NA	NA
HB102396	NA	NA
QS102419	NA	NA
RA102442	NA	NA
JG102465	NA	NA
YS102488	NA	NA
BN102511	NA	NA
PH102534	NA	NA
CH102557	NA	NA
XR102580	NA	NA
YC102603	NA	NA
EU102626	NA	NA
II102649	NA	NA
XA102672	NA	NA
IB102695	NA	NA
EB102718	NA	NA
GP102787	NA	NA
NX102856	NA	NA
IG102902	NA	NA
VJ102925	NA	NA
HB102948	NA	NA
FJ102971	NA	NA
UK102994	NA	NA
BB103063	NA	NA
PB103086	NA	NA
HU103109	NA	NA
VX103132	NA	NA
LL103178	NA	NA
VS103201	NA	NA
NO103247	NA	NA
EL103270	NA	NA
YV103293	NA	NA
ZI103316	NA	NA
KM103339	NA	NA
ZU103523	NA	NA
HR276	NA	NA
PO690	NA	NA
IP1955	NA	NA
FI3013	NA	NA
LS3542	NA	NA
LH7843	NA	NA
MA6072	NA	NA
NO6003	NA	NA
MG9223	NA	NA
QR6509	NA	NA
ZA100832	NA	NA
AJ100855	NA	NA
HA100878	NA	NA
TC100947	NA	NA
EB101039	NA	NA
XX101798	NA	NA
QO16882	NA	NA
ID16928	NA	NA
HT16951	NA	NA
JV100717	NA	NA
OX100763	NA	NA
RQ101062	NA	NA
HZ101108	NA	NA
KP103707	NA	NA
BE105317	NA	NA
ED109342	NA	NA
IJ109503	NA	NA
XL116104	NA	NA
NL129329	NA	NA
QY101292	NA	NA
WH103385	NA	NA
KE101200	NA	NA
AG101890	NA	NA
QE103408	NA	NA
MX102166	NA	NA
XT103431	NA	NA
YS102189	NA	NA
XN102074	NA	NA
ZQ102051	NA	NA
GO101913	NA	NA
VA101384	NA	NA
IP102028	NA	NA
YH102120	NA	NA
XQ101315	NA	NA
TI102143	NA	NA
UV103454	NA	NA
II101982	NA	NA
BL101660	NA	NA
DC101476	NA	NA
DF101269	NA	NA
NQ101453	NA	NA
JJ101568	NA	NA
ZC101867	NA	NA
NW102005	NA	NA
DV102097	NA	NA
SH101936	NA	NA
EF101499	NA	NA
IP101430	NA	NA
HQ101338	NA	NA
DX101246	NA	NA
AU101177	NA	NA
GB101591	NA	NA
OH101844	NA	NA
TJ101223	NA	NA
YD101407	NA	NA
EZ103477	NA	NA
MP101522	NA	NA
GE101545	NA	NA
WI101637	NA	NA
ZO101614	NA	NA
KK95059	QY101292	DC101476
IY95082	QY101292	DC101476
QQ95105	QY101292	DC101476
DD95151	QY101292	DC101476
RP95427	WH103385	DC101476
HC95450	WH103385	DC101476
SM95496	KE101200	DF101269
PR95519	KE101200	DF101269
VW95588	AG101890	NQ101453
TK95611	AG101890	NQ101453
TJ95634	AG101890	NQ101453
RP95795	QE103408	JJ101568
AD95818	QE103408	JJ101568
RM95841	MX102166	ZC101867
FP95864	MX102166	ZC101867
QE96048	XT103431	NW102005
PH96071	XT103431	NW102005
AN96094	XT103431	NW102005
TW96347	YS102189	DV102097
ZD96370	YS102189	DV102097
NI96853	XN102074	DC101476
OA96876	XN102074	SH101936
QG96899	XN102074	SH101936
ZM96968	NO103247	EF101499
HP96991	NO103247	EF101499
CF97313	ZQ102051	IP101430
TE97497	GO101913	HQ101338
JL97520	GO101913	DX101246
VJ97543	GO101913	HQ101338
HG97566	GO101913	HQ101338
HR97589	AG101890	NQ101453
MS97658	AG101890	NQ101453
OW97681	AG101890	NQ101453
UH97704	MX102166	ZC101867
CY97727	MX102166	ZC101867
BE97750	MX102166	ZC101867
YB97773	MX102166	ZC101867
NN97796	VA101384	AU101177
EV97819	VA101384	GB101591
TC97842	VA101384	AU101177
SZ97865	VA101384	AU101177
VV97934	XT103431	NW102005
KF97957	XT103431	NW102005
WP97980	XT103431	NW102005
EN98003	WH103385	DF101269
VW98026	WH103385	DF101269
ZT98049	WH103385	DF101269
SX98072	WH103385	DF101269
KS98095	WH103385	DF101269
UG98118	IP102028	OH101844
HV98141	IP102028	OH101844
MB98164	IP102028	OH101844
XH98256	YH102120	II102649
CC98279	YH102120	II102649
XL98302	YH102120	II102649
BP98325	YH102120	II102649
LF98348	KE101200	XA102672
CP98371	KE101200	XA102672
CC98463	XQ101315	TJ101223
LS98486	XQ101315	TJ101223
DE98532	TI102143	AU101177
HQ98555	TI102143	AU101177
AS98647	IB102695	NW102005
NA98670	IB102695	XA102672
XM98693	IB102695	XA102672
UN98762	YS102189	YD101407
DH98785	YS102189	EZ103477
XD99107	ZQ102051	GE101545
NH99130	ZQ102051	GE101545
EJ99153	ZQ102051	GE101545
YK99176	NO103247	EF101499
AO99199	NO103247	EF101499
MP99222	NO103247	EF101499
TM99337	XN102074	SH101936
NI99383	UV103454	YD101407
OE99406	UV103454	YD101407
SP99429	UV103454	YD101407
RB99544	QE103408	PB103086
WD99636	AG101890	NQ101453
TS99659	AG101890	TJ101223
YU99774	II101982	HQ101338
LC99797	II101982	HQ101338
BN99820	II101982	WI101637
HJ102258	NA	EF101499
ML102304	NA	XA102672
OL102741	NA	DF101269
VG103017	NA	DF101269
RF103040	NA	NW102005
HK103155	NA	AU101177
ED103362	NA	XA102672
YI103500	TI102143	AU101177
CA103546	NA	JJ101568
DQ103569	NA	SH101936
TN103592	AG101890	II102649
UJ529	WH103385	NW102005
EJ5727	MX102166	EF101499
ZZ460	WH103385	ZC101867
UG483	WH103385	ZC101867
RI506	WH103385	ZC101867
XS943	ZQ102051	GE101545
CQ966	ZQ102051	GE101545
UC1012	ZQ102051	GE101545
IX1035	XN102074	SH101936
CB1058	XN102074	DF101269
KQ1081	XN102074	DF101269
SJ1104	XN102074	DF101269
RU1334	UV103454	YD101407
PO1357	UV103454	YD101407
KV1380	UV103454	YD101407
TL1403	UV103454	YD101407
LF1426	UV103454	YD101407
CR1633	VA101384	GB101591
QQ1656	VA101384	GB101591
GL1679	VA101384	GB101591
WX2047	IB102695	IP101430
FZ2093	IB102695	IP101430
AK2116	IB102695	IP101430
IS2898	XQ101315	II102649
HU2921	XQ101315	II102649
IR2944	XQ101315	II102649
VA3450	XN102074	SH101936
TO3473	XN102074	SH101936
NM3496	XN102074	SH101936
RR3519	XN102074	SH101936
UA4462	UV103454	YD101407
DP4485	UV103454	YD101407
GS4508	UV103454	YD101407
VJ4531	UV103454	YD101407
HD4876	IB102695	IP101430
XS4899	IB102695	IP101430
JE8809	LO100648	UK102994
NY8855	LO100648	UK102994
FE14168	LO100648	UK102994
UG14191	LO100648	UK102994
EY14467	EP100671	DC101476
KC14490	EP100671	DC101476
KA14513	EP100671	DC101476
AX9568	YS102189	EF101499
HT9982	ZU103523	ZO101614
MP10005	ZU103523	ZO101614
WP10028	ZU103523	EF101499
BD10051	ZU103523	ZO101614
FC100901	LO100648	UK102994
ZG22126	ZU103523	GB101591
DG22103	ZU103523	GB101591
VY22149	ZU103523	GB101591
JH37766	ZU103523	GB101591
KV37789	ZU103523	GB101591
YC97428	RA102442	VG103017
DT97451	RA102442	VG103017
TG97474	RA102442	VG103017
PV102281	NA	VG103017
KS102373	NA	VG103017
VZ102764	NA	VG103017
RH102810	NA	VG103017
VU102833	NA	VG103017
FM102879	NA	VG103017
RF103224	NA	VG103017
EW16629	PH96071	OL102741
OT101729	NA98670	BP98325
LJ851	YI103500	EZ103477
QP874	YI103500	EZ103477
HC897	YI103500	EZ103477
EL920	YI103500	EZ103477
HA1472	AN96094	KS98095
YJ1495	AN96094	KS98095
BI1518	AN96094	KS98095
RV3128	DD95151	QQ95105
JH3634	ED103362	QQ95105
OO3657	YI103500	EZ103477
RK4968	CP98371	BT102350
EF5106	AN96094	KS98095
AQ5129	AN96094	KS98095
SO5175	AN96094	KS98095
OS5750	HQ98555	RF103040
AC5773	CC98279	QQ95105
FH16606	XT103431	LS98486
MV100786	YI103500	ZO101614
DG101683	AN96094	FJ102971
VN101706	CC98279	ZC101867
EA101821	QG96899	DC101476
GN345	QE103408	OL102741
IJ368	QE103408	OL102741
SH552	ED103362	ZO101614
CH575	ED103362	II102649
WZ621	ED103362	DC101476
ZU644	NO103247	BP98325
CJ667	NO103247	BP98325
GL713	NO103247	BP98325
DI736	NA98670	DC101476
GF759	NA98670	DC101476
QH782	NA98670	DC101476
MF805	NA98670	DC101476
PN1265	PH96071	PR95519
AQ1288	PH96071	PR95519
QY1311	PH96071	PR95519
JY1748	TS99659	XL98302
RV1771	TS99659	XL98302
GS1794	TS99659	XL98302
RW1840	XM98693	TJ95634
PE1863	XM98693	TJ95634
FN1886	XM98693	TJ95634
LC1909	XM98693	TJ95634
KR1932	MS97658	HQ101338
AR1978	MS97658	HQ101338
DS2001	MS97658	HQ101338
LF2024	MS97658	HQ101338
QZ2162	CP98371	OW97681
SI2185	CP98371	OW97681
BI2208	CP98371	OW97681
ZT2254	IY95082	DH98785
FF2277	IY95082	DH98785
US2300	IY95082	DH98785
XG2323	SZ97865	WI101637
BH2346	SZ97865	WI101637
FQ2369	SZ97865	DV102097
YD2392	SZ97865	WI101637
TE2438	SZ97865	WI101637
DK2714	TK95611	HU103109
RU2737	TK95611	HU103109
YK2760	TK95611	HU103109
HQ3105	DD95151	NW102005
QI3565	ED103362	ZO101614
PG3588	ED103362	ZO101614
ET3703	PH96071	PR95519
FA3749	PH96071	PR95519
YT3772	PH96071	PR95519
MK3795	PH96071	PR95519
DC3910	NO103247	BP98325
LR3979	NO103247	BP98325
XE4002	NO103247	BP98325
QI4324	MS97658	HQ101338
GW4347	IY95082	DH98785
ML4370	IY95082	DH98785
AQ4393	IY95082	DH98785
OW4554	XM98693	IP101430
VZ4945	CP98371	DX101246
DA5014	SZ97865	DV102097
UK5037	SZ97865	DV102097
QJ13984	SJ1104	CB1058
PX9246	KV1380	WI101637
LQ9269	KV1380	HQ101338
BI9292	KV1380	WI101637
NT16192	XT103431	KS98095
GF13685	FZ2093	DH98785
XA7866	YH102120	HU2921
SI13455	FP95864	XL98302
HM13478	FP95864	XL98302
GD10166	PH96071	OL102741
TM10189	PH96071	OL102741
QG10373	QG96899	OL102741
GI5934	CP98371	OW97681
QT5957	CP98371	OW97681
ND5980	CP98371	OW97681
XQ10695	CP98371	OW97681
CV10718	CP98371	OW97681
VH10741	CP98371	OW97681
LP8073	NA98670	BP98325
VR8096	NA98670	BP98325
KZ8119	NA98670	BP98325
LS8142	NA98670	BP98325
UA13340	NA98670	BP98325
TT13363	NA98670	BP98325
BX13386	NA98670	BP98325
VD13432	NA98670	BP98325
QT15019	NA98670	BP98325
SX15042	NA98670	BP98325
HG15065	NA98670	BP98325
QE6578	XM98693	GB101591
FM6601	XM98693	GB101591
AC10879	XM98693	GB101591
QI10902	XM98693	GB101591
VF10925	XM98693	GE101545
YK13202	XM98693	GB101591
FL8602	II101982	TJ95634
XP7360	WH103385	KS98095
XZ7406	WH103385	LS98486
NV10787	XT103431	LS98486
XQ10810	XT103431	LS98486
WO10833	XT103431	LS98486
XU6187	TN103592	XA102672
CS9913	TN103592	XA102672
FC9936	TN103592	XA102672
WO9959	TN103592	XA102672
ED14927	TN103592	XA102672
ZI14950	TN103592	XA102672
FR9039	YI103500	SX98072
OW100924	XT103431	KS98095
TE16905	LO100648	JE8809
IE17687	QG96899	CB1058
JK17710	QG96899	DQ103569
NR19389	XS943	GB101591
WI46391	LO100648	JE8809
LE101775	MS97658	NA
XM12972	CC98279	PR95519
PH12995	CC98279	NW102005
CY13018	CC98279	NW102005
VM13041	CC98279	PR95519
BY17043	AX9568	NW102005
BX17066	AX9568	NW102005
MD17480	CC98279	ZC101867
QM17664	QG96899	CB1058
QV18814	NA98670	BP98325
CZ18837	NA98670	BP98325
FA19090	HP96991	NW102005
JU19113	HP96991	NW102005
VR19136	HP96991	NW102005
MF19159	HP96991	NW102005
WO20470	XT103431	KS98095
GF20493	XT103431	KS98095
GV20976	AX9568	ZO101614
AW20999	AX9568	ZO101614
SA21528	HP96991	NW102005
AM21551	HP96991	NW102005
RK21620	HP96991	NW102005
RD23115	XT103431	KS98095
KX23138	XT103431	KS98095
IH23943	AX9568	ZO101614
KE23989	AX9568	ZO101614
GT24196	CC98279	PR95519
EL24219	CC98279	PR95519
YM24242	CC98279	PR95519
YN24265	CC98279	PR95519
FD25116	NA98670	BP98325
XW25139	NA98670	BP98325
LR25185	HP96991	NW102005
NL25208	HP96991	NW102005
VK46023	VY22149	DQ103569
ZT26358	NA98670	BP98325
JG30774	AX9568	ZO101614
BP33097	NA98670	BP98325
AO33327	CC98279	PR95519
JR33442	LO100648	JE8809
KL33465	LO100648	JE8809
JZ36340	XT103431	KS98095
RL39951	NA98670	BP98325
AB39974	NA98670	BP98325
ZR39997	NA98670	BP98325
DX44367	CC98279	PR95519
SD44390	CC98279	PR95519
VH69069	AX9568	ZO101614
FE69046	AX9568	ZO101614
GG69000	AX9568	ZO101614
FE68080	NA98670	BP98325
UH68057	NA98670	BP98325
OG67298	CC98279	PR95519
GI67275	CC98279	PR95519
XS67252	CC98279	NW102005
TT67229	CC98279	NW102005
HU62905	AX9568	ZO101614
KZ60283	CC98279	PR95519
QL60260	CC98279	PR95519
LW60237	CC98279	PR95519
VN55016	AX9568	EF101499
HC54993	AX9568	ZO101614
GM50393	CC98279	PR95519
KL50370	CC98279	PR95519
QL97244	PV102281	JG102465
FI97267	PV102281	JG102465
XV97290	PV102281	JG102465
DT98923	VZ102764	MP101522
LX98946	VZ102764	MP101522
HS98969	VZ102764	MP101522
TE98992	VZ102764	MP101522
YG99452	PV102281	JG102465
DB99475	PV102281	JG102465
ZU99498	PV102281	JG102465
TU2622	XT103431	RH102810
VG2967	PV102281	DF101269
JL46	XT103431	RH102810
HI69	XT103431	RH102810
AD92	XT103431	RH102810
FA253	PV102281	DF101269
RQ299	PV102281	DF101269
WM2484	VZ102764	FJ102971
UJ2530	VZ102764	FJ102971
YX2553	VZ102764	FJ102971
GD2576	XT103431	RH102810
YV2599	XT103431	RH102810
EU2645	XT103431	RH102810
JM2668	XT103431	RH102810
IU2990	PV102281	DF101269
RU3036	PV102281	DF101269
YL3059	PV102281	DF101269
BA4025	VZ102764	GB101591
GE4048	VZ102764	GB101591
ES4071	VZ102764	GB101591
SX4094	VZ102764	GB101591
HL4738	XT103431	RH102810
XN4761	XT103431	RH102810
LD16652	PV102281	FJ102971
LU9798	DI736	YD2392
NL9821	DI736	BH2346
CV9844	DI736	YD2392
EL9683	QH782	PR95519
FC9706	QH782	ZC101867
UR9729	QH782	XA102672
OZ9752	QH782	PR95519
HO15226	QH782	PR95519
HX15249	QH782	PR95519
YJ7958	QP874	DF101269
QR8004	QP874	DF101269
BK13869	QP874	DF101269
JA13892	QP874	DF101269
TJ13915	QP874	DF101269
DI14122	IX1035	PN1265
AF14145	IX1035	PN1265
PE16169	JY1748	OW97681
WX6992	DC3910	II102649
FX7015	DC3910	ZO101614
PU7038	DC3910	II102649
LL10580	DC3910	II102649
QL10603	DC3910	II102649
KJ6118	QG96899	MF805
RJ6141	QG96899	MF805
AL6164	QG96899	MF805
WP10396	QG96899	IJ368
QS10419	QG96899	IJ368
ZT10442	QG96899	IJ368
BV8326	PV102281	FJ102971
KS8349	PV102281	FJ102971
UA15410	PV102281	FJ102971
UQ15433	PV102281	FJ102971
HX7705	IB102695	IJ368
DF6532	VZ102764	RI506
EA6555	VZ102764	RI506
JS10281	VZ102764	ZZ460
QU10304	VZ102764	RI506
JH10327	VZ102764	ZZ460
PU14743	VZ102764	OL102741
ME14766	VZ102764	OL102741
PW14789	VZ102764	OL102741
FI14812	VZ102764	OL102741
PC16675	YI103500	SH552
NK25277	KV1380	SH552
XW25300	VZ102764	OL102741
TS25369	TE2438	XA102672
LC100809	QP874	DF101269
AC17457	CC98279	VN101706
NY24840	KZ8119	SH552
WH11339	QG96899	YD2392
MO11362	QG96899	YD2392
YG11385	QG96899	YD2392
SU17273	DI736	SX98072
EO17549	GF13685	VN101706
MF17572	GF13685	VN101706
ZB18239	QP874	DF101269
AQ18262	QP874	DF101269
YV18285	QP874	DF101269
TG18998	EW16629	UC1012
TD19021	EW16629	UC1012
SK19044	EW16629	UC1012
OR19343	XS943	YK13202
XP19366	XS943	YK13202
RN19780	NT16192	DQ103569
VL21275	KV1380	SH552
DP21298	KV1380	SH552
QO21321	KV1380	SH552
AL21344	KV1380	SH552
XK23161	XT103431	OW100924
ND23736	KV1380	SH552
LS23759	KV1380	SH552
EW23782	KV1380	SH552
RI24817	KZ8119	OW97681
JS17894	VZ102764	OL102741
ZP21367	KV1380	SH552
FO26243	XT103431	RD23115
YR26266	XT103431	OW100924
JQ33396	VM13041	DF101269
XZ36915	XA7866	RI506
SF37168	MV100786	LR25185
BM37191	MV100786	LR25185
MX39468	AW20999	QV18814
MV39491	AW20999	QV18814
QS39514	AW20999	QV18814
PP40181	JY1748	FM6601
NS70219	AW20999	CV10718
JT68172	AW20999	QV18814
QQ68149	AW20999	QV18814
TR68126	AW20999	QV18814
TE67620	ZR39997	CB1058
UX67597	ZR39997	CB1058
BA63480	LE101775	ZG22126
VJ63457	LE101775	ZG22126
QV60444	AW20999	QV18814
WU60421	AW20999	QV18814
GR60375	AW20999	QV18814
LU58052	ZR39997	CB1058
GG58029	ZR39997	CB1058
CW50071	JY1748	FM6601
JV50048	JY1748	FM6601
KW50025	JY1748	FM6601
LK74152	LE101775	ZG22126
BZ79511	LE101775	ZG22126
OD87975	MV100786	NA
DF101752	XM98693	FI97267
XV1127	IP102028	XV97290
NL1173	IP102028	XV97290
ZE1196	IP102028	XV97290
WT1541	II101982	FI97267
PA1564	II101982	FI97267
NP1587	II101982	FI97267
YB1610	II101982	FI97267
HR2783	HP96991	ZU99498
PN2806	HP96991	ZU99498
WX2829	HP96991	ZU99498
AU3289	YS102189	HS98969
YI3312	YS102189	HS98969
TB3335	YS102189	HS98969
IL3358	YS102189	HS98969
PF3818	IP102028	XV97290
FX3887	IP102028	XV97290
QV4117	II101982	FI97267
UI4140	II101982	FI97267
BW4163	II101982	FI97267
SK4186	II101982	FI97267
UJ4209	II101982	FI97267
TU4646	YH102120	TE98992
KV4669	YH102120	TE98992
AP4692	YH102120	TE98992
NZ6026	ZU644	DB99475
LJ6049	ZU644	DB99475
ZY9338	ZU644	DB99475
LS9361	ZU644	DB99475
EE9407	ZU644	DB99475
MG14306	ZU644	DB99475
EN14329	ZU644	DB99475
SE14352	ZU644	DB99475
BB9775	DI736	FI97267
RF7107	XS943	FA253
TD7153	XS943	FA253
LM13225	XS943	EU2645
RZ13248	XS943	FA253
AX13271	XS943	EU2645
BT6900	WM2484	PR95519
QT6923	WM2484	PR95519
HF10649	DC3910	TE98992
GP6670	HL4738	IS2898
OB9453	HL4738	IS2898
ER9476	HL4738	XL98302
MX9499	HL4738	IS2898
CM10212	PH96071	TE98992
IG15134	PH96071	TE98992
UJ15157	PH96071	TE98992
FB15180	PH96071	TE98992
AS15203	PH96071	TE98992
DU8510	AN96094	UJ2530
GU8533	AN96094	UJ2530
QX8165	NA98670	TE98992
CT10074	TS99659	VG2967
AN10120	TS99659	VG2967
EH10143	TS99659	VG2967
FS13570	BL101660	TU2622
NY13593	BL101660	TU2622
DD13616	BL101660	TU2622
HD5819	IP102028	XV97290
IP5842	IP102028	XV97290
FE5865	IP102028	XV97290
DT5888	IP102028	XV97290
XJ9131	IP102028	XV97290
DR9154	IP102028	XV97290
QZ9177	IP102028	XV97290
SX14375	IP102028	XV97290
TI14398	IP102028	XV97290
PH14421	IP102028	XV97290
QP14444	IP102028	XV97290
QO9591	YS102189	ZU99498
GK9614	YS102189	ZU99498
AZ9637	YS102189	ZU99498
FS14076	AD92	UC1012
GS14099	AD92	UC1012
KH25346	XN4761	UJ2530
WT18906	PV102281	KS8349
ZC18929	PV102281	KS8349
VQ18952	PV102281	KS8349
UT22057	MV100786	TU2622
GF11569	DI736	FI97267
YW11592	DI736	FI97267
CE11615	DI736	FI97267
JY11753	FZ2093	EU2645
NE11776	FZ2093	EU2645
OA11799	FZ2093	EU2645
IF11822	FZ2093	EU2645
XG11983	HM13478	EA6555
HM12006	HM13478	EA6555
JH12052	KZ8119	FC9706
MW12075	KZ8119	FC9706
QC12673	NA98670	FA253
HA12765	HL4738	HX15249
DY12788	HL4738	SX4094
FD12811	HL4738	SX4094
CM12834	HL4738	SX4094
EQ12857	HL4738	HX15249
CS17112	NL9821	TE98992
VU17135	NL9821	RI506
AM17204	UA15410	XL98302
QQ17296	DI736	FI97267
HV17319	DI736	FI97267
AM17342	DI736	FI97267
YQ17365	YJ7958	SX98072
YB17388	YJ7958	SX98072
UH18768	HL4738	HX15249
BD18791	HL4738	HX15249
RM19274	DF6532	BP98325
EF19297	DF6532	BP98325
AW20033	AF14145	II102649
CL20102	AF14145	II102649
SV20516	XT103431	HS98969
PS20631	YJ7958	SX98072
RT20654	YJ7958	SX98072
KL20723	GD10166	TE98992
RZ20746	GD10166	TE98992
EC20769	GD10166	TE98992
EB20792	NL9821	RI506
UA20838	NL9821	RI506
NF21045	UA15410	XL98302
QT21068	UA15410	XL98302
FS21091	UA15410	XL98302
QV21643	DF6532	XA102672
NJ21666	DF6532	XA102672
PA21712	AF14145	FM6601
HQ21758	AF14145	FM6601
JR21781	AF14145	FM6601
UA21965	TJ13915	SX4094
VS21988	TJ13915	SX4094
DO22011	TJ13915	SX4094
JW22034	MV100786	TU2622
WA22080	MV100786	TU2622
DP22517	JA13892	II102649
LI22540	JA13892	II102649
DD22632	GF13685	EA6555
IG22655	GF13685	PC16675
IY22724	CV9844	DB99475
WY22747	CV9844	DB99475
HI22770	CV9844	NW102005
ZN23322	NL9821	RI506
WT23345	NL9821	RI506
NX23368	NL9821	RI506
RM23966	AX9568	EA6555
CT24081	NV10787	EU2645
MS24104	NV10787	EU2645
MT24127	HL4738	HX15249
NJ24150	HL4738	HX15249
KM24173	HL4738	HX15249
NY24702	DI736	FI97267
PS24725	DI736	FI97267
EP24748	DI736	FI97267
FE101016	DI736	FI97267
CZ100970	YJ7958	UC1012
DZ21735	AF14145	FM6601
HA26289	HL4738	HX15249
IZ26381	NA98670	TE98992
AT28198	DI736	FI97267
LR28221	DI736	FI97267
BN28244	DI736	FI97267
GM28957	AL21344	FI97267
YK31326	QO21321	DQ103569
RF31349	QO21321	CV10718
VP31372	QO21321	CV10718
GD31441	JY1748	EA6555
PD33051	NA98670	TE98992
YF33074	NA98670	TE98992
NK33235	ED14927	LL10580
DZ33258	ED14927	LL10580
PK33281	ED14927	LL10580
ZP33304	ED14927	LL10580
VE34661	KZ8119	PC16675
CF34707	KZ8119	PC16675
IC34776	HM13478	EA6555
II34799	HM13478	EA6555
NR34822	HM13478	EA6555
DM35144	AL21344	FI97267
JZ35903	NL9821	RI506
JZ35949	NL9821	RI506
SQ36018	RN19780	TU2622
VT36041	RN19780	TU2622
NB36064	RN19780	TU2622
DM36156	VR19136	NK25277
SJ36938	XA7866	EL9683
NG36961	XA7866	EL9683
VC37260	TJ13915	OT101729
NC37651	JA13892	TE98992
SM38318	AX9568	TE98992
YN38341	AX9568	TE98992
TR38824	CV9844	DG101683
ZK38847	CV9844	DG101683
GL41009	ED14927	FA253
YG41032	ED14927	LL10580
GZ41354	HL4738	UJ2530
VJ41699	TJ13915	DQ103569
RH41929	XW25300	SX98072
TY43309	NL9821	RI506
MV43424	RN19780	TU2622
PM43447	RN19780	TU2622
WJ43470	RN19780	UC1012
HK43838	XA7866	EL9683
DL43861	XA7866	EL9683
CL44045	AX9568	TE98992
CJ44068	AX9568	TE98992
TZ44091	AX9568	TE98992
WS44597	CV9844	DG101683
NR44620	CV9844	DG101683
KD44643	CV9844	DG101683
UD70150	XP19366	ZG22126
AH70334	MV100786	MO11362
BL78867	KZ8119	PC16675
GP78844	KZ8119	PC16675
JP69805	JA13892	TE98992
ZW69782	JA13892	TE98992
OP69759	JA13892	TE98992
YK68356	ED14927	LL10580
QA68333	ED14927	LL10580
QH68310	ED14927	LL10580
DL68287	ED14927	LL10580
SQ68034	NA98670	TE98992
IS67758	NL9821	RI506
BS67735	NL9821	RI506
BO67712	NL9821	RI506
LH67689	NL9821	RI506
YK66861	XA7866	EL9683
WA66838	XA7866	EL9683
CV66700	RN19780	TU2622
CD66677	RN19780	CB1058
IJ63664	CZ18837	FA253
GO63595	JA13892	TE98992
OB63549	JA13892	TE98992
AY63526	JA13892	TE98992
AP61962	ED14927	LL10580
WW61939	ED14927	LL10580
VG61916	ED14927	LL10580
TW61893	ED14927	LL10580
PM61663	QO21321	MV39491
ZM60973	KZ8119	PC16675
DR60950	KZ8119	PC16675
IA59248	NL9821	RI506
QF59225	NL9821	RI506
IL59202	NL9821	RI506
MK58765	XA7866	EL9683
YY58742	XA7866	EL9683
JS55522	QS39514	AB39974
EA55361	JA13892	TE98992
KK55315	JA13892	TE98992
UJ55292	JA13892	TE98992
ZY55269	JA13892	TE98992
UM54073	RN19780	TU2622
CY54050	RN19780	TU2622
HX52900	QO21321	MV39491
GY49864	KZ8119	PC16675
XK49841	KZ8119	TU2622
JD49818	KZ8119	PC16675
EE49013	HM13478	EA6555
SG73692	NL9821	EA6555
NZ76130	QO21321	MO11362
BB76153	QO21321	MO11362
OP76176	QO21321	MO11362
HQ76843	VN55016	TU2622
GM76866	GV20976	TU2622
QD76889	GV20976	TU2622
JX80960	QO21321	EU2645
JU80983	QO21321	MO11362
DG81236	KZ8119	PC16675
EQ81259	KZ8119	PC16675
IA81420	RN19780	TU2622
WP81443	RN19780	TU2622
UW81489	RN19780	TU2622
AK83513	QO21321	CB1058
ZN88757	QO21321	CB1058
QY7774	JY1748	YI3312
OV7199	WX2829	KV4669
ZW8188	NL1173	SH552
YA8211	NL1173	SH552
SR8234	NL1173	BW4163
SR13777	NL1173	SH552
NJ13823	NL1173	SH552
YN13846	NL1173	SH552
UZ6854	WX2829	HS98969
RN10488	WX2829	HS98969
QR10511	WX2829	HS98969
XF10534	WX2829	HS98969
LY10557	WX2829	HS98969
JC14835	WX2829	HS98969
JV14858	WX2829	HS98969
GE14881	WX2829	HS98969
EX13087	DF101752	OT101729
DN16974	DT5888	XV97290
VQ16997	DT5888	XV97290
OM17020	DT5888	TI14398
QJ18469	DF101752	FM6601
OE23920	GU8533	XV97290
GR46230	AL6164	TB3335
KM100993	RF7107	NA
CJ11063	IX1035	PF3818
VM11477	CM10212	LS8142
VL11891	WX2829	HS98969
KJ11914	WX2829	HS98969
KO12167	HD5819	QO9591
QF12190	HD5819	QO9591
OG12259	GU8533	XV97290
RP12282	CT10074	FA253
WX12305	CT10074	FA253
SD12328	CT10074	FA253
JR12420	AZ9637	GE101545
DB12443	AZ9637	GE101545
OU12466	AZ9637	GE101545
UK12489	AZ9637	GE101545
KI12604	ED14927	TI14398
UW12627	ED14927	TI14398
FG13110	DF101752	FS13570
OO13133	DF101752	FS13570
ZB17158	JY1748	TB3335
IA17181	JY1748	TB3335
CH17227	HD5819	QO9591
QM17595	RF7107	ZU99498
FW17618	IX1035	PF3818
CS17641	IX1035	PF3818
ZZ17825	CM10212	LS8142
OG18308	ED14927	TI14398
TJ19711	PN2806	GB101591
JT20355	RF7107	ZU99498
BO20378	RF7107	NW102005
BN20401	RF7107	ZU99498
NS20424	RF7107	NW102005
BB21827	JY1748	TB3335
GA21850	JY1748	TB3335
CO21896	JY1748	TB3335
NJ22172	PN2806	RU3036
ZW22195	PN2806	GB101591
YT22218	PN2806	RU3036
HZ22839	RF7107	ZU99498
DA22862	RF7107	ZU99498
YW23667	HD5819	QO9591
OY23874	GU8533	XV97290
MI23897	GU8533	XV97290
JB24311	IX1035	PF3818
ZY24334	IX1035	PF3818
LP24357	IX1035	PF3818
PI24380	IX1035	PF3818
BZ24403	IX1035	PF3818
TC24426	ED14927	TI14398
IL24449	ED14927	TI14398
TT24587	WO10833	AS15203
KP24610	WO10833	AS15203
QA24656	CT10074	FA253
CF24886	AZ9637	DQ103569
NJ24909	AZ9637	DQ103569
ZD24932	AZ9637	DQ103569
LA45977	MG14306	FB15180
LE46000	MG14306	FB15180
QS46115	MG14306	FR9039
FQ46138	MG14306	FB15180
PS46046	HA12765	DU8510
IV46092	HA12765	DU8510
OW46184	MV100786	DD22632
YQ46207	MG14306	UJ529
GR46276	VY22149	YW11592
WR46299	VY22149	BB9775
YU46414	AZ9637	UJ2530
BY11500	CM10212	LS8142
RL17250	HD5819	QO9591
OS26312	DF101752	FS13570
SD26335	DF101752	FS13570
WX26404	WO10833	AS15203
QZ26542	CT10074	FA253
ZH27876	DY12788	UJ529
IJ27922	DY12788	UJ529
TK29003	AL21344	OA11799
MR29486	IY22724	TB3335
PV29509	IY22724	EA6555
KH30659	EP24748	DU8510
JD30889	UA21965	NY13593
EM30958	NY24702	VN101706
AZ30981	NY24702	QU10304
ZP31004	NY24702	VN101706
AN31119	DT5888	UJ529
YA31142	DT5888	RU3036
TA31165	WA22080	OW97681
FU32706	DD13616	GK9614
NS32982	CT10074	FA253
LQ33028	CT10074	FA253
QE33143	WO10833	AS15203
GX33189	WO10833	AS15203
HX34040	IX1035	PF3818
HM34477	IG22655	EE9407
VL34500	IG22655	EE9407
HI34546	IG22655	EE9407
XX34891	HV17319	WT18906
GM34914	HV17319	WT18906
ZZ34937	HV17319	WT18906
VD34960	HV17319	WT18906
MY35167	AL21344	OA11799
PN35190	AL21344	OA11799
CL35512	SV20516	NW102005
LA35558	SV20516	NW102005
NF36087	EC20769	LS8142
CB36110	EC20769	LS8142
NN36478	QC12673	AC5773
ZP36501	QC12673	AC5773
HN36547	LI22540	DG101683
TT36570	LI22540	DG101683
DD36593	LI22540	DG101683
IS36639	RF7107	NW102005
CD37398	DY12788	UJ529
EW37421	DY12788	UJ529
PJ37927	DD13616	GK9614
QD39146	UA21965	NY13593
UP39169	UA21965	NY13593
BW40273	CT10074	FA253
PV40296	CT10074	FA253
XT40319	CT10074	FA253
UP40618	WO10833	AS15203
HK40641	WO10833	AS15203
HJ41216	IX1035	PF3818
YG41239	IX1035	PF3818
US41262	IX1035	PF3818
GS41285	IX1035	PF3818
MM41607	IY22724	TB3335
EF41630	IY22724	TB3335
WG41814	PN2806	RU3036
SB42159	SV20516	NW102005
PS42389	HV17319	EU2645
WE42619	JH12052	UJ2530
FI43286	FS21091	TE98992
ZL43746	XG11983	AC5773
ID44436	DF101752	FS13570
RN44459	DF101752	FS13570
WM44505	IG22655	EE9407
BP44528	IG22655	EE9407
JO44873	VR19136	OA11799
UG44942	AZ9637	DQ103569
BL44988	AZ9637	DQ103569
GG45195	RF7107	AC5773
DK45264	PN2806	DU8510
OI45287	PN2806	RU3036
IJ45310	PN2806	RU3036
SB45333	PN2806	UQ15433
CB45356	IY22724	TB3335
GI45402	IY22724	EA6555
MP70173	FE101016	PH12995
QF70196	MG14306	DQ103569
FA70288	FE101016	CE11615
FZ100694	TE16905	CZ100970
IR100740	RN19780	YF33074
LJ101131	NY24702	ZK38847
JM81811	IG22655	ZG22126
DP81765	DZ33258	FB15180
KX78821	VE34661	PC16675
UP70472	FE101016	CE11615
CE70403	VY22149	CE11615
AW69621	IY22724	TB3335
BJ69598	IY22724	TB3335
ZG69575	IY22724	EA6555
SF69023	AX9568	TB3335
KK68264	LI22540	DG101683
RF68241	LI22540	DG101683
FY68218	LI22540	DG101683
BC67873	CT24081	AT28198
KT67505	VP31372	YW11592
KE66102	SV20516	NW102005
JA66033	IX1035	PF3818
NJ66010	IX1035	PF3818
OT65688	FE101016	CE11615
ZD65665	FE101016	QO9591
AY65550	EC20769	LS8142
WS65527	EC20769	LS8142
DZ65297	XW25300	UT22057
JW65274	XW25300	UT22057
HO65251	XW25300	UT22057
PH65228	XW25300	UT22057
ZD64837	DF101752	EA6555
NZ64791	DF101752	EA6555
UW64446	WO10833	AS15203
EV64423	WO10833	AS15203
XI63756	FS21091	II102649
SR63273	LI22540	DG101683
ZY63227	IY22724	TB3335
NM63181	IY22724	TB3335
UW62813	BN28244	EU2645
WP62790	BN28244	MO11362
LR62330	NR44620	II102649
RY62169	PN2806	ZP33304
UA61203	DT5888	GK9614
ON60536	DZ33258	OT101729
JM60513	DZ33258	OT101729
TF59938	EC20769	LS8142
GR59915	EC20769	LS8142
LQ59892	EC20769	LS8142
VV58857	RF7107	AC5773
ZW58650	DL43861	YW11592
BK58190	VP31372	YW11592
MI58167	VP31372	YW11592
GH58144	VP31372	MO11362
MZ58121	VP31372	YW11592
KD57937	LI22540	DG101683
ND57891	SV20516	NW102005
XC57868	SV20516	NW102005
JS57845	SV20516	NW102005
WM57822	SV20516	NW102005
GN57799	SV20516	NW102005
KH57339	IG22655	EE9407
JI57316	IG22655	EE9407
FV57086	XW25300	UT22057
VP57063	XW25300	UT22057
EN57040	XW25300	UT22057
NO57017	XW25300	UT22057
GE56281	DF101752	TE98992
HE55407	WO10833	AS15203
BR55384	WO10833	AS15203
XZ54234	PN2806	ZP33304
CM54211	PN2806	ZP33304
RC54188	PN2806	PF3818
IG54027	RN19780	NB36064
DB53958	DT5888	ZP33304
XC52256	VY22149	CE11615
TQ51934	TJ13915	LR28221
NV51911	TJ13915	LR28221
CK51865	TJ13915	LR28221
BC51704	YM24242	ZC18929
KX51681	YM24242	ZC18929
GE51658	YM24242	ZC18929
PB51635	DY12788	UJ529
CJ51612	DY12788	UJ529
PX51566	DY12788	AC5773
UK51451	SV20516	NW102005
HR51428	SV20516	NW102005
WG50991	DD13616	GK9614
NQ50968	DD13616	GK9614
HV50945	DD13616	GK9614
XI50830	IX1035	PF3818
VB50324	WA22080	ZI14950
RV50301	WA22080	ZI14950
LJ50255	WA22080	ZI14950
GI49979	IG22655	EE9407
VL49956	IG22655	EE9407
WK49910	IG22655	EE9407
DO49634	EC20769	LS8142
KP49611	EC20769	LS8142
OA48668	CT10074	FA253
CP48622	CT10074	FA253
RK48369	NL9821	TB3335
OL71001	JH12052	PR95519
AY71047	JH12052	PR95519
KO71116	IX1035	PF3818
HM73899	HL4738	WA66838
VY74934	TW61893	UJ529
WP75256	DT5888	QO9591
SQ75325	DT5888	ZI14950
BT75463	MG14306	UJ529
KO76314	XW25300	UT22057
AP76360	XW25300	AT28198
PM76383	XW25300	AT28198
OY76958	IX1035	PF3818
CB77004	IX1035	PF3818
HD77257	DD13616	GK9614
WE77280	DD13616	GK9614
CA77303	DD13616	GK9614
CG77510	NL9821	AS15203
NZ77556	NL9821	AS15203
QF78062	IY22724	QH68310
YA78085	IY22724	QH68310
GB78177	XK49841	BO67712
MX78223	XK49841	IJ63664
EV78545	SV20516	NW102005
MM78591	SV20516	NW102005
PR78614	SV20516	NW102005
YF78913	ZP21367	DD22632
OT78936	ZP21367	DD22632
WH79028	LI22540	UJ529
JK79051	LI22540	UJ529
UI79557	DT5888	ZI14950
QI79580	DT5888	ZI14950
LG79603	DT5888	ZI14950
HE79626	DT5888	ZI14950
UL79718	TW61893	UJ529
UB79787	TW61893	UJ529
GT79810	HM13478	ZM60973
YX80661	IX1035	PF3818
GO80684	IX1035	PF3818
GW80707	IX1035	PF3818
CG81328	DD13616	GK9614
RF81351	DD13616	ZI14950
GZ81374	DD13616	GK9614
JL83835	RN19780	WW61939
UI83904	RN19780	WW61939
XF83927	UD70150	IJ63664
BO87331	RN19780	WW61939
IO87998	UD70150	IJ63664
SO88021	UD70150	IJ63664
XR88044	UD70150	IJ63664
IW88090	HM13478	ZM60973
BG88113	HM13478	ZM60973
DP88136	HM13478	ZM60973
RH88412	DD13616	BB76153
DT89815	RN19780	WW61939
IX89838	RN19780	WW61939
CG89861	RN19780	WW61939
FI12351	NJ13823	JC14835
SH12374	NJ13823	JC14835
PE12880	JV14858	EF101499
HL12903	JV14858	EF101499
LG12926	JV14858	EF101499
AB12949	JV14858	EF101499
WC18009	NJ13823	PR95519
TN18032	NJ13823	PN1265
ZN19182	UZ6854	KS8349
GN19205	UZ6854	KS8349
VZ19918	GF13685	ZW8188
WT20125	JV14858	EF101499
IL20171	JV14858	EF101499
KB20562	JA13892	RN10488
BM22310	UZ6854	QR10511
VM22333	UZ6854	QR10511
VJ22402	CS9913	ZW8188
SN46069	TC24426	EL24219
RK46161	NJ24909	IP101430
QQ46253	JT20355	DD22632
SJ46322	TC24426	EL24219
MV46345	JT20355	DD22632
TE46368	JT20355	EA6555
WC27416	JV14858	BY11500
TO29440	CS9913	ZW8188
KZ30314	ZB17158	YW11592
RF30843	UA21965	ZW8188
BS30866	VS21988	ZW8188
FK31878	TJ19711	OW97681
MK31901	TJ19711	PC16675
CN33649	DF6532	RN10488
FS33672	DF6532	RN10488
BP33925	XS943	VL11891
YE33948	XS943	VL11891
UQ33971	XS943	VL11891
EH34109	JV14858	BY11500
EJ34155	JV14858	BY11500
UA34178	JV14858	BY11500
QO34569	IL24449	KS8349
EQ34592	IL24449	KS8349
JO34615	IL24449	KS8349
CU34638	IL24449	KS8349
JF35236	TT24587	JE8809
CS35259	TT24587	EU2645
JM35282	TT24587	EU2645
OZ35305	TT24587	EU2645
HY35351	CS9913	ZW8188
HI35397	CS9913	ZW8188
XZ35420	CS9913	ZW8188
FW35443	CO21896	YW11592
IM35466	ZB17158	YW11592
IO35489	ZB17158	YW11592
XN35811	OU12466	CV10718
MF35834	OU12466	CV10718
MY35857	OU12466	CV10718
RK36754	JR12420	JE8809
IO36777	JR12420	JE8809
AZ38939	TJ19711	OW97681
DT38962	TJ19711	OW97681
BQ39031	DF6532	RN10488
CU39054	DF6532	RN10488
ZU39560	CZ18837	YN13846
AL39583	CZ18837	YN13846
FI39744	NE11776	QM17595
UT39767	NE11776	QM17595
MW40687	OG12259	QO9591
QA40710	OG12259	QO9591
KE40733	OG12259	UJ2530
ZV40756	OG12259	QO9591
XX42021	JV14858	BY11500
DW43769	XG11983	OY23874
FT44781	NJ24909	LR25185
DA44804	NJ24909	LR25185
SW70242	MG14306	UG44942
MU70311	JT20355	EU2645
ME81834	JI57316	PC16675
EK81788	KM100993	LR28221
IX80086	DZ33258	ZW8188
HA80063	JT20355	AT28198
XK70564	OO13133	PF3818
JU70380	MG14306	UG44942
HT70058	KM100993	KS98095
MV70035	KM100993	OW100924
SU70012	KM100993	DG101683
QP69966	KM100993	DG101683
AS69920	OO13133	ZI14950
TI69897	OO13133	ZI14950
ZL69713	GD10166	QR10511
FJ69690	GD10166	QR10511
MO69667	GD10166	QR10511
KT69322	TT24587	WM44505
BZ69299	TT24587	WM44505
BN67827	TJ19711	PC16675
RD67804	TJ19711	NF36087
UG66815	JV14858	BY11500
VZ66792	JV14858	BY11500
SS66769	JV14858	TU2622
DE66746	JV14858	TU2622
LB66355	IG22655	YN13846
GI66332	IG22655	YN13846
WA65918	HL4738	YU46414
KV65895	HL4738	YU46414
WD65872	HL4738	YU46414
EH65159	QY7774	CV10718
FQ65136	QY7774	CV10718
HR65113	QY7774	CV10718
AC64929	OG12259	QO9591
PH64906	OG12259	QO9591
WB64883	OG12259	QO9591
HA64653	QS39514	OY23874
YC63733	FS21091	SB42159
IY62721	GD10166	QR10511
GY62698	GD10166	QR10511
MB62675	GD10166	QR10511
BT62445	HN36547	FR9039
UO62422	HN36547	FR9039
IS62399	HN36547	FR9039
PP62376	HN36547	FR9039
ZP62307	NR44620	IJ45310
KM62261	NR44620	IJ45310
OK61801	TT24587	WM44505
RD61778	TT24587	WM44505
SO61755	TT24587	WM44505
RS61571	JV14858	AT28198
KJ61548	JV14858	AT28198
OW61525	JV14858	AT28198
LR61134	JR12420	EL24219
QT61111	JR12420	EL24219
CC61088	JR12420	EL24219
RH59731	CS9913	ZW8188
UR59708	CS9913	ZW8188
NI59685	CS9913	ZW8188
TQ59501	TJ19711	NF36087
CO59478	TJ19711	NF36087
ZO59455	TJ19711	PC16675
XV59432	TJ19711	PC16675
LZ59409	TJ19711	NF36087
DK58512	ZP21367	BY11500
ZT58489	ZP21367	BY11500
AE58466	ZP21367	BY11500
NP58443	ZP21367	BY11500
GE58282	OU12466	AC5773
WQ58259	OU12466	AC5773
FK58236	OU12466	AC5773
XD57753	IV46092	ZC18929
WM57707	IV46092	ZC18929
PI57247	GD10166	QR10511
NQ57224	GD10166	QR10511
NH56925	NR44620	IJ45310
YE56442	OG12259	QO9591
XQ56419	OG12259	QO9591
YF56396	OG12259	QO9591
SE56373	OG12259	QO9591
SR56166	QY7774	CV10718
PI56143	QY7774	CV10718
SM56074	JH12052	YU46414
RG56051	JH12052	YU46414
HS55108	XG11983	OY23874
AT55085	XG11983	OY23874
SW55062	XG11983	OY23874
CM54970	VE34661	VL34500
LI54947	VE34661	VL34500
UI54924	VE34661	VL34500
PH54602	MS24104	ZW8188
FH54326	HL4738	YU46414
HI54280	HL4738	YU46414
OI54142	CL35512	YW11592
DC54119	CL35512	YW11592
OC54096	CL35512	YW11592
SE53406	TJ19711	PC16675
ZE52049	AZ9637	QM17595
UY51543	DY12788	SB42159
TR51359	KM100993	KS98095
UX51336	KM100993	KS98095
SE50761	YJ7958	BL44988
CL50738	YJ7958	BL44988
GY50715	YJ7958	BL44988
CT50646	JV14858	BY11500
SL50623	JV14858	BY11500
KT50600	JV14858	BY11500
SB49772	RF7107	HZ22839
IU49726	RF7107	HZ22839
BO49542	CS9913	ZW8188
WN49519	CS9913	ZW8188
QF49151	JH12052	YU46414
QZ49128	JH12052	YU46414
FY48507	FS21091	QR10511
CS48070	XG11983	OY23874
LQ47219	OG12259	QO9591
HH74520	FY68218	GR59915
NE74543	FY68218	GR59915
WO74658	IR100740	TU2622
MR75003	IV46092	ZC18929
AZ75348	YM24242	QF70196
IX75394	YM24242	QF70196
EP75417	YM24242	QF70196
WT75440	MG14306	UG44942
GV75900	OO13133	LR28221
FK75923	OO13133	LR28221
IR75946	OO13133	LR28221
UE75992	CT24081	BY11500
LX76705	JD49818	BY11500
ID76751	JD49818	BY11500
JF76774	TJ19711	PC16675
OJ76797	TJ19711	NF36087
KT76820	TJ19711	NF36087
IK77165	RN19780	GE51658
YB78292	HL4738	UA61203
TE78315	HL4738	UA61203
QX78338	HL4738	UA61203
KZ78729	IV46092	ZC18929
WG78752	IV46092	ZC18929
KJ78775	IV46092	ZC18929
IU79143	IR100740	FZ100694
SZ79166	IR100740	FZ100694
JL79189	IR100740	FZ100694
MR79235	OU12466	NW102005
OI79258	OU12466	NW102005
CC79281	OU12466	NW102005
HY79350	MG14306	RV50301
MJ80293	XW25300	BL44988
TF80316	XW25300	BY11500
ZM80339	XW25300	BY11500
LY80477	QY7774	WA66838
FY81144	TJ19711	NF36087
CQ81167	TJ19711	NF36087
YR81190	TJ19711	NF36087
NO81213	TJ19711	NF36087
DD81282	KZ8119	NF36087
SO81650	HL4738	UA61203
VC81696	HL4738	UA61203
RC87952	IR100740	FZ100694
ZJ88481	KZ8119	NF36087
YC88504	KZ8119	NF36087
VF88895	KZ8119	NF36087
AC82409	IR100740	ZM60973
QP84525	JI57316	BO67712
OP84548	JI57316	QO9591
HF84571	JI57316	BO67712
EY85652	IR100740	AS15203
IP85951	IV46092	QO9591
PU85974	IV46092	QO9591
UU86135	KX78821	ZM60973
VB86181	JD49818	NF36087
JA86227	JD49818	NF36087
II86250	JD49818	NF36087
QJ86273	XW25300	FZ100694
OE86296	XW25300	QI79580
QX86871	BL78867	HD77257
GL86894	BL78867	HD77257
FO86917	BL78867	HD77257
XS86940	BL78867	HD77257
NB87101	YA78085	GI49979
TP87124	YA78085	GI49979
NH87147	YA78085	BO67712
JA87860	JI57316	QO9591
NJ87906	JI57316	BO67712
IC87929	JI57316	BO67712
JU89033	IV46092	QO9591
LM89056	IV46092	QO9591
FS89217	DP81765	CG77510
EV89240	DP81765	CG77510
BN89401	XW25300	QI79580
ZY89424	XW25300	QI79580
HO89447	XW25300	QI79580
NA89884	GO80684	AS15203
BX90114	YA78085	GI49979
ZK90137	YA78085	GI49979
TL90160	YA78085	GI49979
LD92506	IV46092	HD77257
GB92529	IV46092	CG77510
QY93656	IV46092	CG77510
SG93679	IV46092	CG77510
RH93725	IV46092	CG77510
JI94254	IR100740	ZM60973
JB94300	IV46092	CG77510
XF109457	IR100740	ZM60973
PN106237	QO21321	FZ100694
VD106260	QO21321	FZ100694
IK108468	QO21321	FZ100694
VF108491	QO21321	FZ100694
RA34224	LG12926	FR9039
QY34247	LG12926	DU8510
CA37858	TN18032	VM11477
IN42251	TN18032	VM11477
CL42274	TN18032	VM11477
OD43654	LG12926	DU8510
BO43677	LG12926	FR9039
XQ44137	TC24426	FI12351
YV70265	RL17250	VJ22402
JF70357	JR12420	FI12351
QG101085	AZ9637	FI12351
QX80040	RK36754	YF33074
WJ78890	XX42021	UA34178
BV70541	OO13133	VJ22402
DP70518	OO13133	VJ22402
UU69943	OO13133	VJ22402
YT69874	OO13133	VJ22402
KD68379	TN18032	UJ529
TH66976	SJ46322	ZW8188
GH66953	SJ46322	ZW8188
GY66930	SJ46322	ZW8188
IZ66562	FK31878	FM6601
ZU65343	XX42021	AN31119
ZR65320	XX42021	AN31119
CE64860	DF101752	FI12351
JT64814	DF101752	FI12351
EE64768	DF101752	FI12351
RZ64584	PE12880	XV97290
BE64561	PE12880	XV97290
ZH64538	PE12880	XV97290
YU64170	MF35834	RZ20746
LG64147	MF35834	RZ20746
EV64032	RK46161	GR46276
FB64009	RK46161	GR46276
JX59041	SJ46322	HK43838
VK58995	SJ46322	HK43838
RI58972	SJ46322	HK43838
YG57431	TN18032	LR25185
WR57385	TN18032	LR25185
ZZ56672	VR19136	FS33672
MT56626	VR19136	FS33672
IF56603	VR19136	FS33672
HJ56304	DF101752	FI12351
QH56258	DF101752	FI12351
ZZ55798	MF35834	RZ20746
NM55752	MF35834	RZ20746
NL55729	MF35834	RZ20746
QJ54855	PE12880	XV97290
IC54832	PE12880	XV97290
TU54809	PE12880	XV97290
QZ54464	FK31878	NY13593
EB54441	FK31878	NY13593
VI54418	FK31878	NY13593
OV53176	XX42021	AN31119
UX52187	TN18032	CE11615
RO52164	TN18032	LR25185
KK52141	TN18032	LR25185
CM52072	AZ9637	FI12351
DO47541	PE12880	XV97290
JR71208	NR44620	WC27416
QT73600	RK46161	TE98992
QT73623	RK46161	OC54096
KP73646	RK46161	OC54096
YX75279	DT5888	TI69897
OX75371	YM24242	VZ66792
RZ75509	TN18032	QO9591
TB75532	TN18032	QO9591
ME75555	TN18032	QO9591
AX75578	LR61134	NF36087
BV75624	LR61134	LQ47219
GB75808	XX42021	CT50646
DV75831	XX42021	CT50646
YY75877	XX42021	CT50646
YX76728	JD49818	FS33672
VT77050	NR19389	VZ66792
WF77073	NR19389	VZ66792
YU77326	HI54280	ZG22126
YI77349	HI54280	ZG22126
TB77625	MB62675	QR10511
TH79419	PI57247	BL44988
LL79442	PI57247	MZ58121
MX79465	PI57247	BL44988
PF79488	PI57247	MZ58121
LA79925	TN18032	QO9591
KR79948	TN18032	QO9591
NK79971	TN18032	QO9591
NY79994	TN18032	QO9591
XQ80109	KV65895	UG44942
NV80132	KV65895	ZG22126
SG80385	LR61134	BL44988
TT80408	LR61134	LQ47219
KM80431	LR61134	BL44988
ZG80454	LR61134	LQ47219
NM80546	NR19389	VZ66792
OY80569	NR19389	VZ66792
KX80592	NR19389	VZ66792
CI80615	NR19389	VZ66792
WP80845	KK55315	FS33672
LX80868	KK55315	FS33672
FP81075	HI54280	XS67252
PO81098	HI54280	XS67252
NK81121	HI54280	XS67252
CG81512	RK36754	BY11500
ZW81535	RK36754	EH65159
TW81558	RK36754	EH65159
GH82317	QT61111	TR51359
RR88320	CO59478	FZ100694
HO91885	LQ59892	GE58282
OF83283	YX80661	SZ79166
CU83490	QO21321	CT50646
BX83582	QO21321	CT50646
OM84364	IR75946	QO9591
RY84387	IR75946	QO9591
KA84709	YB78292	QO9591
MB84732	YB78292	QO9591
OU84778	KT76820	TE98992
MT84801	KT76820	TE98992
UI84824	KT76820	TE98992
PX84985	CG81328	AE58466
LK85008	CG81328	AE58466
KC85330	PI57247	GR59915
PA85445	PI57247	GR59915
OJ85491	LE101775	BQ39031
MD85537	LE101775	BQ39031
PU85721	YX80661	SZ79166
CR85744	YX80661	SZ79166
EL85767	YX80661	SZ79166
OT85790	YX80661	SZ79166
XR85836	ZP21367	CT50646
OG85859	ZP21367	CT50646
WE85882	ZP21367	CT50646
OM85905	ZP21367	CT50646
MZ86089	KX78821	XQ56419
OV86158	KX78821	XQ56419
ZH86572	PM76383	AZ75348
KV86595	PM76383	AZ75348
GX86618	PM76383	AZ75348
YZ86641	OY76958	SZ79166
NP86986	YB78292	BQ39031
PU87216	IR75946	QO9591
ZQ87262	IR75946	QO9591
PG88527	CG81328	AE58466
YM88550	CG81328	AE58466
RC88642	KT76820	TE98992
GS88665	KT76820	TE98992
NR88734	QO21321	CT50646
PQ88803	PI57247	GR59915
ZD88826	PI57247	GR59915
SD89907	YX80661	SZ79166
DK89930	YX80661	SZ79166
VR89999	KX78821	XQ56419
AV90022	KX78821	XQ56419
XY90045	KX78821	XQ56419
NY90068	KX78821	XQ56419
RJ90367	JD49818	CT50646
LZ90390	JD49818	CT50646
SK92023	IR75946	BQ39031
MB92713	QO21321	CT50646
WN92759	QO21321	CT50646
GL92782	QO21321	CT50646
WG93058	IR75946	ZM60973
JE93081	IR75946	ZM60973
TL93104	IR75946	ZM60973
TQ93127	IR75946	ZM60973
EJ93150	IR75946	ZM60973
GS93748	UI83904	HY79350
GL93771	UI83904	HY79350
WQ93794	UI83904	HY79350
JS93817	UI83904	HY79350
HT93955	QO21321	CT50646
SP93978	QO21321	CT50646
EE94001	QO21321	CT50646
SD94024	QO21321	CT50646
IL94415	BG88113	SZ79166
ZB94438	BG88113	SZ79166
TY94461	BG88113	SZ79166
XZ94484	IR75946	HD77257
HY94507	IR75946	HD77257
QZ94530	IR75946	HD77257
SW94553	IR75946	HD77257
ND105179	IR75946	GR59915
YL105248	IR75946	GR59915
YX105731	XF109457	GB92529
ML105754	XF109457	GB92529
KC105777	XF109457	GB92529
SK106812	BG88113	HY79350
IN107318	IR75946	HD77257
CC107341	IR75946	HD77257
NP107387	IR75946	HD77257
TX107847	XF109457	GB92529
IJ107870	XF109457	GB92529
FC107893	XF109457	GB92529
CD108514	QO21321	MR79235
XV108928	IR75946	GR59915
AF108951	IR75946	GR59915
XO108974	IR75946	HD77257
RI109365	BG88113	HY79350
CV109388	IR100740	JI94254
GV109411	YA78085	AZ75348
IC101154	AZ9637	QG101085
DN66493	RL17250	OD43654
AT76682	JD49818	WJ78890
XP77372	HI54280	EV64032
LX78660	ZR65320	CB1058
ER78683	ZR65320	CB1058
VU78706	ZR65320	CB1058
AV80753	XX42021	MT56626
IC80776	XX42021	MT56626
XT80799	XX42021	MT56626
RX80822	XX42021	MT56626
DO81857	VY22149	QG101085
JF82386	IR100740	ME75555
WE82432	IR100740	ME75555
CZ83605	LA79925	HY79350
SO83628	LA79925	HY79350
XZ83651	LA79925	HY79350
DZ85284	VT77050	WJ78890
RG85376	VT77050	WJ78890
VJ85399	VT77050	WJ78890
UR85422	VT77050	WJ78890
JB85606	IR100740	ME75555
DF85629	IR100740	ME75555
ZZ85675	IR100740	ME75555
EA86480	ZR65320	CB1058
JF86503	ZR65320	CB1058
EU86526	ZR65320	CB1058
FN86687	RL17250	TT80408
WM86710	RL17250	TT80408
AI86756	LA79925	HY79350
TM86779	LA79925	HY79350
XV86802	LA79925	HY79350
WW87446	LX80868	XQ56419
KS87469	LX80868	XQ56419
EU87492	LX80868	XQ56419
PU87584	LR61134	QG101085
CI87883	JI57316	TT80408
FU88343	HQ76843	TT80408
OC88918	VT77050	WW61939
NI88941	VT77050	WJ78890
PU88964	VT77050	WJ78890
ZD90229	LA79925	HY79350
RX90252	LA79925	WW61939
FO90275	LA79925	HY79350
LK90298	LA79925	WW61939
OR90459	ZR65320	NF36087
XX90482	ZR65320	CB1058
CX90505	ZR65320	NF36087
IB90528	ZR65320	NF36087
GH90551	ZR65320	NF36087
QW90804	HQ76843	TT80408
RV90942	IR100740	ME75555
LM91034	PM76383	QG101085
RQ91057	PM76383	QG101085
AX91080	PM76383	QG101085
NT91103	PM76383	QG101085
ND91126	PM76383	QG101085
XV93426	AX75578	KM80431
OL94691	AX75578	FZ100694
SP103753	YA78085	QG101085
XU91908	IR100740	ME75555
GE91954	IR100740	ME75555
XR91977	IR100740	ME75555
NG92299	UD70150	TT80408
KJ92345	UD70150	TT80408
LD92368	UD70150	TT80408
DF92621	UI83904	GX86618
JC92644	UI83904	GX86618
AR92667	UI83904	GX86618
FS93173	IR100740	ME75555
AW93196	IR100740	ME75555
MQ93219	IR100740	ME75555
XZ93242	IR100740	ME75555
SD93288	YA78085	QG101085
DB93311	YA78085	QG101085
YH93357	YA78085	QG101085
ZO93380	YA78085	QG101085
EF93403	YA78085	QG101085
UW93541	UD70150	TT80408
DP93564	UD70150	TT80408
AP93587	UD70150	TT80408
DE93610	UD70150	TT80408
KB93633	UD70150	TT80408
GW94208	IR100740	ME75555
YJ94737	UI83904	ZH86572
PT94760	UI83904	ZH86572
DG103684	AX75578	FZ100694
RC103730	IR100740	ME75555
TO103776	AX75578	CT50646
XB109480	YA78085	QG101085
WZ103891	IR100740	ME75555
PX103914	IR100740	ME75555
SK104604	UD70150	TT80408
RX105064	QZ94530	CG77510
WC105455	GL92782	TT80408
XJ105524	SP93978	MB84732
IA105547	SP93978	MB84732
GN106881	TQ93127	FZ100694
JT107364	IR75946	QG101085
NI107548	QZ94530	CG77510
ED107594	QZ94530	HD77257
ZJ107663	GL92782	TT80408
AG108583	UD70150	TT80408
ZL108629	UD70150	TT80408
KD108698	HT93955	WN92759
PZ108790	TQ93127	JI94254
OT108905	JE93081	HD77257
SN109112	GL92782	MB84732
RE109135	GL92782	MB84732
XT109434	BG88113	QG101085
JN91931	IR100740	RV90942
IW92851	EA86480	GR59915
LD92874	EA86480	GR59915
EK92897	EA86480	GR59915
KM92920	EA86480	GR59915
HB93863	EA86480	GR59915
SU93886	EA86480	GR59915
PI93909	EA86480	GR59915
LZ93932	EA86480	GR59915
LU104374	XB109480	ZO93380
RC104466	RC103730	QY93656
NC104489	RC103730	QY93656
EN104512	RC103730	QY93656
BL104581	NG92299	DE93610
BN104880	YH93357	KP103707
PH105087	QZ94530	TO103776
RS105340	JC92644	TT80408
MF105363	JC92644	TT80408
SK105386	JC92644	ZH86572
PQ105432	NG92299	EE94001
FS105478	NG92299	EE94001
SU105639	WQ93794	OL94691
QB105662	WQ93794	OL94691
ES105685	WQ93794	OL94691
YA105869	XV93426	OJ85491
GZ105892	XV93426	OJ85491
JQ106398	SD93288	ZH86572
AK106421	XB109480	WN92759
RM106444	XB109480	WN92759
KR106467	XB109480	WN92759
FI106858	TQ93127	AR92667
TC106927	RC103730	QY93656
QJ106950	RC103730	QY93656
BQ106973	RC103730	QY93656
SX107019	MQ93219	ZO93380
YJ107042	AW93196	MB84732
IZ107065	MQ93219	MB84732
AX107203	SP103753	KP103707
QC107249	SP103753	KP103707
GL107272	SP103753	KP103707
BG107433	AP93587	ME75555
WK107456	AP93587	ME75555
VT107479	AP93587	ME75555
RF107502	AP93587	ME75555
HR107617	GL92782	DE93610
DO107640	GL92782	DE93610
QC107686	GL92782	DE93610
MB107732	YH93357	HY79350
VN107778	YH93357	HY79350
SI107801	YH93357	HY79350
SB107985	JC92644	ZH86572
IL108031	NG92299	EE94001
AN108054	NG92299	EE94001
GI108077	NG92299	EE94001
RC108123	WQ93794	OL94691
DO108146	WQ93794	OL94691
TO108169	WQ93794	OL94691
GE108353	XV93426	OJ85491
GP108376	XV93426	OJ85491
CM108399	XV93426	OJ85491
RG108606	UD70150	UW93541
JG108767	TQ93127	AR92667
YZ109227	AP93587	TO103776
BM109250	AP93587	ME75555
GT109273	YH93357	HY79350
BO109296	YH93357	HY79350
LR109319	YH93357	ME75555
FJ105938	IW92851	SZ79166
EG105961	IW92851	SZ79166
ID105984	IW92851	SZ79166
SA106007	IW92851	SZ79166
FI106122	DP93564	EK92897
IF106145	DP93564	EK92897
GX106168	DP93564	EK92897
MI107111	LZ93932	GR59915
EP107134	LZ93932	GR59915
QC108215	IW92851	SZ79166
FG108238	IW92851	SZ79166
UU108261	IW92851	SZ79166
VH108859	SP103753	EK92897
AX108882	SP103753	EK92897
ZY108997	LZ93932	GR59915
