animal	dam	sire
1	NA	NA
2	NA	NA
3	NA	NA
4	1432	1108
5	1089	723
6	1294	1062
7	1267	1345
8	1294	1062
9	NA	1440
10	NA	NA
11	1562	1541
12	1373	1424
13	1365	1433
14	1521	1486
15	1419	NA
16	1554	1437
17	NA	NA
18	NA	NA
19	NA	NA
20	1545	1439
21	1545	1439
22	1524	1528
23	NA	1417
24	1518	NA
25	1403	1292
26	1290	NA
27	1547	1542
28	1560	1449
29	1573	1574
30	1573	1574
31	1563	1416
32	1327	1478
33	1396	1431
34	1388	1450
35	1310	1122
36	1490	1058
37	1490	1058
38	1552	1436
39	1552	1436
40	1426	1579
41	1435	1543
42	1434	1580
43	1293	1221
44	NA	NA
45	NA	NA
46	NA	NA
47	NA	NA
48	NA	NA
49	NA	NA
50	NA	NA
51	NA	NA
52	NA	NA
53	NA	NA
54	NA	NA
55	NA	NA
56	NA	NA
57	NA	NA
58	NA	NA
59	NA	NA
60	NA	NA
61	NA	NA
62	NA	NA
63	NA	NA
64	NA	NA
65	NA	NA
66	NA	NA
67	NA	NA
68	NA	NA
69	NA	NA
70	NA	NA
71	NA	NA
72	NA	NA
73	NA	NA
74	NA	NA
75	NA	NA
76	NA	NA
77	NA	NA
78	NA	NA
79	NA	NA
80	NA	NA
81	NA	NA
82	NA	NA
83	NA	NA
84	NA	NA
85	NA	NA
86	NA	NA
87	NA	NA
88	NA	NA
89	NA	NA
90	NA	NA
91	NA	NA
92	NA	NA
93	NA	NA
94	NA	NA
95	NA	NA
96	NA	NA
97	NA	NA
98	NA	NA
99	NA	NA
100	NA	NA
101	NA	NA
102	NA	NA
103	NA	NA
104	NA	NA
105	NA	NA
106	NA	NA
107	NA	NA
108	NA	NA
109	NA	NA
110	NA	NA
111	NA	NA
112	NA	NA
113	NA	NA
114	NA	NA
115	NA	NA
116	NA	NA
117	NA	NA
118	NA	NA
119	NA	NA
120	1357	1316
121	1516	32
122	68	249
123	84	NA
124	39	232
125	1396	1223
126	NA	NA
127	NA	NA
128	NA	NA
129	NA	NA
130	NA	NA
131	NA	NA
132	NA	NA
133	NA	NA
134	NA	NA
135	NA	NA
136	NA	NA
137	NA	NA
138	NA	NA
139	NA	NA
140	NA	NA
141	NA	NA
142	NA	NA
143	NA	NA
144	NA	NA
145	NA	NA
146	NA	NA
147	NA	NA
148	NA	NA
149	NA	NA
150	NA	NA
151	NA	NA
152	NA	NA
153	NA	NA
154	NA	NA
155	NA	NA
156	NA	NA
157	NA	NA
158	NA	NA
159	NA	NA
160	NA	NA
161	NA	NA
162	NA	NA
163	NA	NA
164	NA	NA
165	NA	NA
166	NA	NA
167	NA	NA
168	NA	NA
169	NA	NA
170	NA	NA
171	NA	NA
172	NA	NA
173	NA	NA
174	NA	NA
175	NA	NA
176	NA	NA
177	NA	NA
178	NA	NA
179	NA	NA
180	NA	NA
181	NA	NA
182	NA	NA
183	NA	NA
184	NA	NA
185	NA	NA
186	NA	NA
187	NA	NA
188	NA	NA
189	NA	NA
190	NA	NA
191	NA	NA
192	NA	NA
193	NA	NA
194	NA	NA
195	NA	NA
196	NA	NA
197	NA	NA
198	NA	NA
199	NA	NA
200	NA	NA
201	NA	NA
202	NA	NA
203	NA	NA
204	NA	NA
205	NA	NA
206	NA	NA
207	NA	NA
208	NA	NA
209	NA	NA
210	NA	NA
211	NA	NA
212	NA	NA
213	NA	NA
214	NA	NA
215	NA	NA
216	NA	NA
217	NA	NA
218	NA	NA
219	NA	NA
220	NA	NA
221	NA	NA
222	NA	NA
223	NA	NA
224	NA	NA
225	NA	NA
226	NA	NA
227	NA	NA
228	NA	NA
229	NA	NA
230	NA	NA
231	NA	NA
232	NA	NA
233	NA	NA
234	NA	NA
235	NA	NA
236	NA	NA
237	NA	NA
238	NA	NA
239	NA	NA
240	NA	NA
241	NA	NA
242	NA	NA
243	NA	NA
244	NA	NA
245	NA	NA
246	NA	NA
247	NA	NA
248	NA	NA
249	NA	NA
250	NA	NA
251	NA	NA
252	NA	NA
253	1518	1572
254	70	11
255	108	41
256	108	41
257	108	41
258	108	41
259	1534	1532
260	97	113
261	1237	1466
262	NA	NA
263	1414	233
264	1410	236
265	1310	1487
266	1310	1487
267	1553	1587
268	44	7
269	45	62
270	1305	235
271	115	116
272	280	NA
273	1519	69
274	1407	1342
275	106	4
276	106	4
277	1547	1542
278	1479	30
279	1539	1574
280	NA	NA
281	NA	NA
282	NA	NA
283	NA	NA
284	NA	NA
285	NA	NA
286	NA	NA
287	NA	NA
288	NA	NA
289	NA	NA
290	NA	NA
291	NA	NA
292	NA	NA
293	NA	NA
294	NA	NA
295	NA	NA
296	NA	NA
297	NA	NA
298	NA	NA
299	NA	NA
300	NA	NA
301	427	403
302	427	403
303	406	404
304	428	283
305	428	283
306	438	442
307	438	442
308	426	429
309	434	436
310	299	402
311	299	402
312	299	402
313	NA	NA
314	NA	NA
315	NA	NA
316	NA	NA
317	NA	NA
318	NA	NA
319	NA	NA
320	NA	NA
321	NA	NA
322	NA	NA
323	NA	NA
324	NA	NA
325	NA	NA
326	NA	NA
327	NA	NA
328	NA	NA
329	NA	NA
330	NA	NA
331	NA	NA
332	NA	NA
333	NA	NA
334	NA	NA
335	NA	NA
336	NA	NA
337	NA	NA
338	NA	NA
339	NA	NA
340	NA	NA
341	NA	NA
342	NA	NA
343	NA	NA
344	NA	NA
345	NA	NA
346	NA	NA
347	425	439
348	425	439
349	NA	NA
350	349	481
351	433	432
352	450	435
353	450	435
354	431	430
355	431	430
356	437	446
357	437	446
358	445	444
359	NA	NA
360	NA	NA
361	478	360
362	482	479
363	466	465
364	466	465
365	NA	NA
366	365	492
367	365	492
368	365	492
369	NA	NA
370	369	488
371	486	487
372	486	487
373	451	452
374	451	452
375	407	494
376	462	460
377	462	460
378	462	460
379	462	460
380	382	496
381	382	496
382	NA	NA
383	456	454
384	456	454
385	457	459
386	457	459
387	NA	NA
388	489	491
389	489	491
390	3	501
391	463	464
392	469	471
393	469	471
394	NA	NA
395	394	477
396	470	472
397	449	281
398	475	474
399	475	474
400	475	474
401	473	448
402	NA	NA
403	NA	NA
404	NA	NA
405	NA	NA
406	NA	NA
407	NA	NA
408	NA	NA
409	499	498
410	499	498
411	539	NA
412	545	534
413	537	538
414	551	549
415	565	555
416	565	555
417	502	503
418	502	503
419	502	503
420	408	405
421	NA	NA
422	NA	NA
423	NA	NA
424	NA	NA
425	NA	NA
426	NA	NA
427	NA	NA
428	NA	NA
429	NA	NA
430	NA	NA
431	NA	NA
432	NA	NA
433	NA	NA
434	NA	NA
435	NA	NA
436	NA	NA
437	NA	NA
438	NA	NA
439	NA	NA
440	NA	NA
441	NA	NA
442	NA	NA
443	NA	NA
444	NA	NA
445	NA	NA
446	NA	NA
447	NA	NA
448	NA	NA
449	NA	NA
450	NA	NA
451	NA	NA
452	NA	NA
453	NA	NA
454	NA	NA
455	NA	NA
456	NA	NA
457	NA	NA
458	NA	NA
459	NA	NA
460	NA	NA
461	NA	NA
462	NA	NA
463	NA	NA
464	NA	NA
465	NA	NA
466	NA	NA
467	NA	NA
468	NA	NA
469	NA	NA
470	NA	NA
471	NA	NA
472	NA	NA
473	NA	NA
474	NA	NA
475	NA	NA
476	NA	NA
477	NA	NA
478	NA	NA
479	NA	NA
480	NA	NA
481	NA	NA
482	NA	NA
483	NA	NA
484	NA	NA
485	NA	NA
486	NA	NA
487	NA	NA
488	NA	NA
489	NA	NA
490	NA	NA
491	NA	NA
492	NA	NA
493	NA	NA
494	NA	NA
495	NA	NA
496	NA	NA
497	NA	NA
498	NA	NA
499	NA	NA
500	NA	NA
501	NA	NA
502	NA	NA
503	NA	NA
504	NA	NA
505	476	NA
506	541	542
507	541	542
508	510	574
509	510	574
510	NA	NA
511	NA	NA
512	552	553
513	564	NA
514	564	NA
515	557	558
516	560	554
517	560	554
518	316	NA
519	587	586
520	581	580
521	568	570
522	568	570
523	568	570
524	568	570
525	526	319
526	NA	NA
527	344	582
528	550	1126
529	550	1126
530	584	585
531	584	585
532	NA	NA
533	NA	NA
534	NA	NA
535	NA	NA
536	NA	NA
537	NA	NA
538	NA	NA
539	NA	NA
540	NA	NA
541	NA	NA
542	NA	NA
543	NA	NA
544	NA	NA
545	NA	NA
546	NA	NA
547	NA	NA
548	NA	NA
549	NA	NA
550	NA	NA
551	NA	NA
552	NA	NA
553	NA	NA
554	NA	NA
555	NA	NA
556	NA	NA
557	NA	NA
558	NA	NA
559	NA	NA
560	NA	NA
561	NA	NA
562	NA	NA
563	NA	NA
564	NA	NA
565	NA	NA
566	NA	NA
567	NA	NA
568	NA	NA
569	NA	NA
570	NA	NA
571	NA	NA
572	NA	NA
573	NA	NA
574	NA	NA
575	NA	NA
576	NA	NA
577	NA	NA
578	NA	NA
579	NA	NA
580	NA	NA
581	NA	NA
582	NA	NA
583	NA	NA
584	NA	NA
585	NA	NA
586	NA	NA
587	NA	NA
588	NA	NA
589	NA	NA
590	NA	NA
591	NA	NA
592	NA	NA
593	NA	NA
594	NA	NA
595	NA	NA
596	NA	NA
597	NA	NA
598	NA	NA
599	NA	NA
600	NA	NA
601	NA	NA
602	NA	NA
603	NA	NA
604	NA	NA
605	NA	NA
606	NA	NA
607	NA	NA
608	NA	NA
609	NA	NA
610	NA	NA
611	NA	NA
612	NA	NA
613	NA	NA
614	NA	NA
615	NA	NA
616	NA	NA
617	NA	NA
618	NA	NA
619	NA	NA
620	NA	NA
621	NA	NA
622	NA	NA
623	NA	NA
624	NA	NA
625	NA	NA
626	NA	NA
627	NA	NA
628	NA	NA
629	NA	NA
630	NA	NA
631	NA	NA
632	NA	NA
633	NA	NA
634	NA	NA
635	NA	NA
636	NA	NA
637	NA	NA
638	NA	NA
639	NA	NA
640	NA	NA
641	NA	NA
642	NA	NA
643	NA	NA
644	NA	NA
645	NA	NA
646	NA	NA
647	NA	NA
648	NA	NA
649	NA	NA
650	NA	NA
651	NA	NA
652	NA	NA
653	NA	NA
654	NA	NA
655	NA	NA
656	NA	NA
657	NA	NA
658	NA	NA
659	NA	NA
660	NA	NA
661	NA	NA
662	NA	NA
663	NA	NA
664	NA	NA
665	NA	NA
666	NA	NA
667	NA	NA
668	NA	NA
669	NA	NA
670	NA	NA
671	NA	NA
672	NA	NA
673	NA	NA
674	NA	NA
675	NA	NA
676	NA	NA
677	NA	NA
678	NA	NA
679	NA	NA
680	NA	NA
681	654	404
682	NA	NA
683	NA	NA
684	434	616
685	550	429
686	462	460
687	671	311
688	466	465
689	535	NA
690	NA	NA
691	NA	NA
692	NA	NA
693	466	465
694	NA	NA
695	NA	NA
696	NA	NA
697	NA	NA
698	NA	NA
699	NA	NA
700	NA	NA
701	NA	NA
702	NA	NA
703	NA	NA
704	NA	NA
705	NA	NA
706	NA	NA
707	NA	NA
708	NA	NA
709	NA	NA
710	NA	NA
711	NA	NA
712	NA	NA
713	NA	NA
714	NA	NA
715	NA	NA
716	NA	NA
717	NA	NA
718	NA	NA
719	NA	NA
720	NA	NA
721	NA	NA
722	NA	NA
723	NA	NA
724	NA	NA
725	NA	NA
726	NA	NA
727	NA	NA
728	NA	NA
729	NA	NA
730	NA	NA
731	NA	NA
732	NA	NA
733	NA	NA
734	NA	NA
735	NA	NA
736	NA	NA
737	NA	NA
738	NA	NA
739	NA	NA
740	NA	NA
741	NA	NA
742	NA	NA
743	NA	NA
744	NA	NA
745	NA	NA
746	NA	NA
747	NA	NA
748	NA	NA
749	NA	NA
750	NA	NA
751	NA	NA
752	NA	NA
753	NA	NA
754	NA	NA
755	NA	NA
756	NA	NA
757	NA	NA
758	NA	NA
759	NA	NA
760	NA	NA
761	NA	NA
762	NA	NA
763	NA	NA
764	NA	NA
765	NA	NA
766	NA	NA
767	480	679
768	480	679
769	480	679
770	307	NA
771	426	290
772	426	290
773	426	290
774	426	290
775	744	418
776	392	763
777	486	580
778	386	762
779	625	383
780	625	383
781	625	383
782	617	621
783	363	558
784	363	558
785	434	663
786	434	663
787	434	663
788	659	389
789	365	481
790	615	542
791	615	542
792	599	501
793	650	609
794	409	460
795	737	678
796	468	467
797	468	467
798	742	388
799	742	388
800	669	297
801	661	630
802	599	501
803	394	379
804	618	506
805	618	506
806	618	506
807	583	347
808	509	291
809	509	291
810	674	593
811	367	NA
812	428	283
813	727	287
814	675	353
815	522	521
816	522	521
817	522	521
818	524	516
819	524	516
820	740	372
821	604	NA
822	607	309
823	NA	NA
824	707	498
825	686	483
826	686	483
827	522	521
828	735	515
829	757	530
830	757	530
831	759	716
832	591	352
833	591	352
834	684	717
835	738	NA
836	685	NA
837	NA	NA
838	NA	NA
839	NA	NA
840	NA	NA
841	NA	NA
842	NA	NA
843	NA	NA
844	NA	NA
845	NA	NA
846	NA	NA
847	NA	NA
848	NA	NA
849	NA	NA
850	NA	NA
851	NA	NA
852	NA	NA
853	NA	NA
854	NA	NA
855	NA	NA
856	NA	NA
857	NA	NA
858	NA	NA
859	NA	NA
860	NA	NA
861	NA	NA
862	NA	NA
863	NA	NA
864	NA	NA
865	NA	NA
866	NA	NA
867	NA	NA
868	NA	NA
869	NA	NA
870	NA	NA
871	NA	NA
872	NA	NA
873	NA	NA
874	NA	NA
875	NA	NA
876	NA	NA
877	NA	NA
878	NA	NA
879	NA	NA
880	NA	NA
881	NA	NA
882	NA	NA
883	NA	NA
884	NA	NA
885	NA	NA
886	NA	NA
887	NA	NA
888	NA	NA
889	NA	NA
890	NA	NA
891	NA	NA
892	NA	NA
893	NA	NA
894	NA	NA
895	NA	NA
896	NA	NA
897	NA	NA
898	NA	NA
899	NA	NA
900	NA	NA
901	NA	NA
902	NA	NA
903	NA	NA
904	860	983
905	307	979
906	939	NA
907	955	531
908	960	771
909	697	770
910	697	770
911	NA	NA
912	NA	NA
913	NA	NA
914	NA	NA
915	NA	NA
916	NA	NA
917	NA	NA
918	NA	NA
919	NA	NA
920	NA	NA
921	NA	NA
922	NA	NA
923	NA	NA
924	NA	NA
925	NA	NA
926	NA	NA
927	NA	NA
928	NA	NA
929	NA	NA
930	NA	NA
931	NA	NA
932	NA	NA
933	NA	NA
934	NA	NA
935	NA	NA
936	NA	NA
937	NA	NA
938	NA	NA
939	NA	NA
940	NA	NA
941	NA	NA
942	NA	NA
943	NA	NA
944	NA	NA
945	NA	NA
946	NA	NA
947	NA	NA
948	NA	NA
949	NA	NA
950	NA	NA
951	NA	NA
952	NA	NA
953	NA	NA
954	NA	NA
955	NA	NA
956	NA	NA
957	NA	NA
958	NA	NA
959	NA	NA
960	NA	NA
961	NA	NA
962	NA	NA
963	NA	NA
964	NA	NA
965	NA	NA
966	NA	NA
967	NA	NA
968	NA	NA
969	NA	NA
970	NA	NA
971	NA	NA
972	NA	NA
973	NA	NA
974	NA	NA
975	NA	NA
976	NA	NA
977	NA	NA
978	NA	NA
979	NA	NA
980	NA	NA
981	NA	NA
982	NA	NA
983	NA	NA
984	NA	NA
985	NA	NA
986	NA	NA
987	NA	NA
988	NA	NA
989	NA	NA
990	NA	NA
991	NA	NA
992	NA	NA
993	NA	NA
994	NA	NA
995	NA	NA
996	NA	NA
997	NA	NA
998	NA	NA
999	NA	NA
1000	NA	NA
1001	NA	NA
1002	NA	NA
1003	NA	NA
1004	NA	NA
1005	NA	NA
1006	NA	NA
1007	NA	NA
1008	NA	NA
1009	NA	NA
1010	NA	NA
1011	NA	NA
1012	NA	NA
1013	NA	NA
1014	NA	NA
1015	NA	NA
1016	NA	NA
1017	NA	NA
1018	NA	NA
1019	NA	NA
1020	NA	NA
1021	NA	NA
1022	NA	NA
1023	NA	NA
1024	NA	NA
1025	NA	NA
1026	NA	NA
1027	NA	NA
1028	NA	NA
1029	NA	NA
1030	NA	NA
1031	NA	NA
1032	NA	NA
1033	NA	NA
1034	NA	NA
1035	NA	NA
1036	NA	NA
1037	NA	NA
1038	NA	NA
1039	NA	NA
1040	NA	NA
1041	367	819
1042	367	819
1043	457	1034
1044	901	834
1045	901	834
1046	901	834
1047	901	834
1048	952	1035
1049	952	1035
1050	938	910
1051	904	775
1052	904	775
1053	1000	NA
1054	386	800
1055	386	800
1056	386	800
1057	773	944
1058	773	944
1059	887	942
1060	887	942
1061	809	291
1062	809	291
1063	642	695
1064	288	716
1065	1006	286
1066	822	366
1067	947	819
1068	947	819
1069	839	794
1070	839	794
1071	839	794
1072	839	794
1073	595	420
1074	849	795
1075	1022	987
1076	898	310
1077	838	NA
1078	838	NA
1079	NA	NA
1080	NA	NA
1081	1025	1036
1082	1014	778
1083	751	882
1084	808	772
1085	973	701
1086	682	998
1087	831	777
1088	831	777
1089	1028	829
1090	792	713
1091	792	713
1092	806	1017
1093	386	800
1094	NA	465
1095	969	835
1096	969	835
1097	NA	465
1098	NA	465
1099	1005	NA
1100	951	1015
1101	NA	580
1102	1032	609
1103	NA	NA
1104	NA	NA
1105	NA	NA
1106	NA	NA
1107	NA	NA
1108	NA	NA
1109	NA	NA
1110	NA	NA
1111	NA	NA
1112	NA	NA
1113	NA	NA
1114	NA	NA
1115	NA	NA
1116	NA	NA
1117	NA	NA
1118	NA	NA
1119	NA	NA
1120	NA	NA
1121	NA	NA
1122	NA	NA
1123	NA	NA
1124	NA	NA
1125	NA	NA
1126	NA	NA
1127	NA	NA
1128	NA	NA
1129	NA	NA
1130	NA	NA
1131	NA	NA
1132	NA	NA
1133	NA	NA
1134	NA	NA
1135	NA	NA
1136	NA	NA
1137	NA	NA
1138	NA	NA
1139	NA	NA
1140	NA	NA
1141	NA	NA
1142	NA	NA
1143	NA	NA
1144	NA	NA
1145	NA	NA
1146	NA	NA
1147	NA	NA
1148	NA	NA
1149	NA	NA
1150	NA	NA
1151	NA	NA
1152	NA	NA
1153	NA	NA
1154	NA	NA
1155	NA	NA
1156	NA	NA
1157	NA	NA
1158	NA	NA
1159	NA	NA
1160	NA	NA
1161	NA	NA
1162	NA	NA
1163	NA	NA
1164	NA	NA
1165	NA	NA
1166	NA	NA
1167	NA	NA
1168	NA	NA
1169	NA	NA
1170	NA	NA
1171	NA	NA
1172	NA	NA
1173	NA	NA
1174	NA	NA
1175	NA	NA
1176	NA	NA
1177	NA	NA
1178	NA	NA
1179	NA	NA
1180	NA	NA
1181	NA	NA
1182	NA	NA
1183	NA	NA
1184	NA	NA
1185	NA	NA
1186	NA	NA
1187	NA	NA
1188	NA	NA
1189	NA	NA
1190	NA	NA
1191	NA	NA
1192	NA	NA
1193	NA	NA
1194	NA	NA
1195	NA	NA
1196	NA	NA
1197	NA	NA
1198	NA	NA
1199	NA	NA
1200	NA	NA
1201	NA	NA
1202	NA	NA
1203	NA	NA
1204	NA	NA
1205	NA	NA
1206	NA	NA
1207	NA	NA
1208	NA	NA
1209	NA	NA
1210	NA	NA
1211	NA	NA
1212	NA	NA
1213	NA	NA
1214	NA	NA
1215	1140	1085
1216	1119	1139
1217	1119	1139
1218	1119	1139
1219	1119	1139
1220	844	900
1221	1156	1093
1222	948	NA
1223	923	1190
1224	907	988
1225	NA	NA
1226	1003	1069
1227	798	NA
1228	889	1200
1229	NA	NA
1230	NA	NA
1231	NA	NA
1232	NA	NA
1233	NA	NA
1234	NA	NA
1235	NA	NA
1236	NA	NA
1237	NA	NA
1238	NA	NA
1239	NA	NA
1240	NA	NA
1241	NA	NA
1242	NA	NA
1243	NA	NA
1244	NA	NA
1245	NA	NA
1246	NA	NA
1247	NA	NA
1248	NA	NA
1249	NA	NA
1250	NA	NA
1251	NA	NA
1252	NA	NA
1253	NA	NA
1254	NA	NA
1255	NA	NA
1256	NA	NA
1257	NA	NA
1258	NA	NA
1259	NA	NA
1260	NA	NA
1261	NA	NA
1262	NA	NA
1263	NA	NA
1264	NA	NA
1265	NA	NA
1266	NA	NA
1267	NA	NA
1268	NA	NA
1269	NA	NA
1270	NA	NA
1271	NA	NA
1272	NA	NA
1273	NA	NA
1274	NA	NA
1275	NA	NA
1276	NA	NA
1277	NA	NA
1278	NA	NA
1279	NA	NA
1280	NA	NA
1281	NA	NA
1282	NA	NA
1283	NA	NA
1284	NA	NA
1285	NA	NA
1286	NA	NA
1287	NA	NA
1288	NA	NA
1289	NA	NA
1290	NA	NA
1291	1144	1192
1292	1106	1259
1293	1188	1011
1294	1073	1091
1295	1243	1258
1296	907	1257
1297	1256	774
1298	1209	1212
1299	958	NA
1300	1153	1037
1301	1153	1037
1302	1218	1252
1303	1266	1114
1304	1238	1198
1305	1083	1062
1306	NA	NA
1307	NA	NA
1308	NA	NA
1309	NA	NA
1310	NA	NA
1311	NA	NA
1312	NA	NA
1313	NA	NA
1314	NA	NA
1315	NA	NA
1316	NA	NA
1317	NA	NA
1318	NA	NA
1319	NA	NA
1320	NA	NA
1321	NA	NA
1322	NA	NA
1323	NA	NA
1324	NA	NA
1325	NA	NA
1326	NA	NA
1327	NA	NA
1328	NA	NA
1329	NA	NA
1330	NA	NA
1331	NA	NA
1332	NA	NA
1333	NA	NA
1334	NA	NA
1335	NA	NA
1336	NA	NA
1337	NA	NA
1338	NA	NA
1339	NA	NA
1340	NA	NA
1341	NA	NA
1342	NA	NA
1343	NA	NA
1344	NA	NA
1345	NA	NA
1346	NA	NA
1347	NA	NA
1348	NA	NA
1349	NA	NA
1350	NA	NA
1351	NA	NA
1352	NA	NA
1353	NA	NA
1354	NA	NA
1355	NA	NA
1356	NA	NA
1357	NA	NA
1358	NA	NA
1359	NA	NA
1360	NA	NA
1361	NA	NA
1362	NA	NA
1363	NA	NA
1364	NA	NA
1365	NA	NA
1366	NA	NA
1367	NA	NA
1368	NA	NA
1369	NA	NA
1370	NA	NA
1371	NA	NA
1372	NA	NA
1373	NA	NA
1374	NA	NA
1375	NA	NA
1376	NA	NA
1377	NA	NA
1378	NA	NA
1379	NA	NA
1380	NA	NA
1381	NA	NA
1382	NA	NA
1383	NA	NA
1384	NA	NA
1385	NA	NA
1386	NA	NA
1387	NA	NA
1388	NA	NA
1389	NA	NA
1390	NA	NA
1391	NA	NA
1392	NA	NA
1393	NA	NA
1394	NA	NA
1395	NA	NA
1396	NA	NA
1397	NA	NA
1398	NA	NA
1399	NA	NA
1400	NA	NA
1401	NA	NA
1402	NA	NA
1403	NA	NA
1404	NA	NA
1405	NA	NA
1406	NA	NA
1407	NA	NA
1408	1367	1454
1409	1083	NA
1410	1372	1186
1411	1319	1455
1412	1392	NA
1413	1264	NA
1414	1370	1456
1415	1140	NA
1416	1361	1461
1417	1457	1460
1418	1403	1301
1419	1325	NA
1420	1209	1462
1421	1281	1309
1422	1246	1055
1423	1246	1055
1424	1246	1055
1425	1350	1213
1426	1350	1213
1427	1350	1213
1428	NA	NA
1429	1293	1221
1430	NA	NA
1431	1268	1222
1432	1070	1253
1433	1318	1467
1434	NA	NA
1435	1317	1220
1436	1317	1220
1437	1286	713
1438	1286	713
1439	1396	NA
1440	1401	NA
1441	1327	1475
1442	1327	1475
1443	NA	NA
1444	367	819
1445	NA	NA
1446	NA	1326
1447	NA	1326
1448	1272	1477
1449	1169	1058
1450	NA	NA
1451	NA	NA
1452	907	NA
1453	NA	NA
1454	NA	NA
1455	NA	NA
1456	NA	NA
1457	NA	NA
1458	NA	NA
1459	NA	NA
1460	NA	NA
1461	NA	NA
1462	NA	NA
1463	1386	1049
1464	NA	NA
1465	NA	NA
1466	1268	1222
1467	NA	NA
1468	NA	NA
1469	NA	NA
1470	NA	NA
1471	NA	NA
1472	NA	NA
1473	NA	NA
1474	NA	NA
1475	NA	NA
1476	NA	NA
1477	NA	NA
1478	NA	NA
1479	1381	NA
1480	1381	NA
1481	NA	NA
1482	NA	NA
1483	NA	NA
1484	NA	NA
1485	NA	NA
1486	NA	NA
1487	NA	NA
1488	NA	NA
1489	NA	NA
1490	NA	NA
1491	NA	NA
1492	NA	NA
1493	NA	NA
1494	NA	NA
1495	NA	NA
1496	NA	NA
1497	NA	NA
1498	NA	NA
1499	NA	NA
1500	NA	NA
1501	NA	NA
1502	NA	NA
1503	NA	NA
1504	NA	NA
1505	NA	NA
1506	NA	NA
1507	NA	NA
1508	NA	NA
1509	NA	NA
1510	NA	NA
1511	NA	NA
1512	NA	NA
1513	NA	NA
1514	NA	NA
1515	NA	NA
1516	NA	NA
1517	NA	NA
1518	NA	NA
1519	NA	NA
1520	NA	NA
1521	NA	NA
1522	NA	NA
1523	NA	NA
1524	NA	NA
1525	NA	NA
1526	NA	NA
1527	NA	NA
1528	NA	NA
1529	NA	NA
1530	NA	NA
1531	NA	NA
1532	NA	NA
1533	NA	NA
1534	NA	NA
1535	NA	NA
1536	NA	NA
1537	NA	NA
1538	NA	NA
1539	NA	NA
1540	NA	NA
1541	NA	NA
1542	NA	NA
1543	NA	NA
1544	NA	NA
1545	NA	NA
1546	NA	NA
1547	NA	NA
1548	NA	NA
1549	NA	NA
1550	NA	NA
1551	NA	NA
1552	NA	NA
1553	NA	NA
1554	NA	NA
1555	NA	NA
1556	NA	NA
1557	NA	NA
1558	NA	NA
1559	NA	NA
1560	NA	NA
1561	NA	NA
1562	NA	NA
1563	NA	NA
1564	NA	NA
1565	NA	NA
1566	NA	NA
1567	NA	NA
1568	NA	NA
1569	NA	NA
1570	NA	NA
1571	NA	NA
1572	NA	NA
1573	NA	NA
1574	NA	NA
1575	NA	NA
1576	NA	NA
1577	NA	NA
1578	NA	NA
1579	NA	NA
1580	NA	NA
1581	NA	NA
1582	NA	NA
1583	NA	NA
1584	NA	NA
1585	NA	NA
1586	NA	NA
1587	NA	NA
1588	NA	NA
1589	NA	NA
1590	NA	NA
1591	NA	NA
1592	NA	NA
1593	NA	NA
1594	NA	NA
1595	NA	NA
1596	NA	NA
1597	NA	NA
1598	NA	NA
1599	NA	NA
1600	NA	NA
1601	NA	NA
1602	NA	NA
1603	NA	NA
1604	NA	NA
1605	NA	NA
1606	NA	NA
1607	NA	NA
1608	NA	NA
1609	NA	NA
1610	NA	NA
1611	NA	NA
1612	NA	NA
1613	NA	NA
1614	NA	NA
1615	NA	NA
1616	NA	NA
1617	NA	NA
1618	NA	NA
1619	NA	NA
1620	NA	NA
1621	NA	NA
1622	NA	NA
1623	NA	NA
1624	NA	NA
1625	NA	NA
1626	NA	NA
1627	NA	NA
1628	NA	NA
1629	NA	NA
1630	NA	NA
1631	NA	NA
1632	NA	NA
1633	NA	NA
1634	NA	NA
1635	NA	NA
1636	NA	NA
1637	NA	NA
1638	NA	NA
1639	NA	NA
1640	NA	NA
1641	NA	NA
1642	NA	NA
1643	NA	NA
1644	NA	NA
1645	NA	NA
1646	NA	NA
1647	NA	NA
1648	NA	NA
1649	NA	NA
1650	NA	NA
1651	NA	NA
1652	NA	NA
1653	NA	NA
1654	NA	NA
1655	NA	NA
1656	NA	NA
1657	NA	NA
1658	NA	NA
1659	NA	NA
1660	NA	NA
1661	NA	NA
1662	NA	NA
1663	NA	NA
1664	NA	NA
1665	NA	NA
1666	NA	NA
1667	NA	NA
1668	NA	NA
1669	NA	NA
1670	NA	NA
1671	NA	NA
1672	NA	NA
1673	NA	NA
1674	NA	NA
1675	1589	1631
1676	275	NA
1677	12	1632
1678	1497	110
1679	64	279
1680	64	279
1681	1408	1580
1682	1357	1635
1683	NA	NA
1684	NA	NA
1685	NA	NA
1686	NA	NA
1687	NA	NA
1688	NA	NA
1689	NA	NA
1690	NA	NA
1691	NA	NA
1692	NA	NA
1693	NA	NA
1694	NA	NA
1695	NA	NA
1696	NA	NA
1697	NA	NA
1698	NA	NA
1699	NA	NA
1700	NA	NA
1701	NA	NA
1702	NA	NA
1703	NA	NA
1704	NA	NA
