\relax 
\@writefile{toc}{\contentsline {section}{\numberline {1}Rcode}{1}}
\@writefile{lof}{\contentsline {figure}{\numberline {1}{\ignorespaces Histogram of the prior uniform distribution and the posterior distribution of the paramter T}}{4}}
\@writefile{lof}{\contentsline {figure}{\numberline {2}{\ignorespaces Diagnostic plots of the abc including the summary statistics: Fst, pivar1, pivar2 and doub1}}{5}}
\@writefile{lof}{\contentsline {figure}{\numberline {3}{\ignorespaces Diagnostic plots of the abc just including the Fst summary statistic}}{5}}
